%YAML 1.1
%TAG !u! tag:unity3d.com,2011:
--- !u!21 &2100000
Material:
  serializedVersion: 6
  m_ObjectHideFlags: 0
  m_CorrespondingSourceObject: {fileID: 0}
  m_PrefabInstance: {fileID: 0}
  m_PrefabAsset: {fileID: 0}
  m_Name: Flower1
  m_Shader: {fileID: 4800000, guid: 383204926384ee444aecccf03d4ee7e3, type: 3}
  m_ShaderKeywords: ANIMATION_FRAC DISSOLVE FRESNEL SWAY USE_NORMAL
  m_LightmapFlags: 4
  m_EnableInstancingVariants: 0
  m_DoubleSidedGI: 0
  m_CustomRenderQueue: -1
  stringTagMap: {}
  disabledShaderPasses: []
  m_SavedProperties:
    serializedVersion: 3
    m_TexEnvs:
    - _BaseMap:
        m_Texture: {fileID: 2800000, guid: 0811ea41544afe848ade42c248fbfdcc, type: 3}
        m_Scale: {x: 1, y: 1}
        m_Offset: {x: 0, y: 0}
    - _BumpMap:
        m_Texture: {fileID: 0}
        m_Scale: {x: 1, y: 1}
        m_Offset: {x: 0, y: 0}
    - _EmissionMap:
        m_Texture: {fileID: 0}
        m_Scale: {x: 1, y: 1}
        m_Offset: {x: 0, y: 0}
    - _MainTex:
        m_Texture: {fileID: 0}
        m_Scale: {x: 1, y: 1}
        m_Offset: {x: 0, y: 0}
    - _MetallicGlossMap:
        m_Texture: {fileID: 0}
        m_Scale: {x: 1, y: 1}
        m_Offset: {x: 0, y: 0}
    - _NormalTexture:
        m_Texture: {fileID: 2800000, guid: 75e50c516a7c2b745b5603ed803fe88a, type: 3}
        m_Scale: {x: 1, y: 1}
        m_Offset: {x: 0, y: 0}
    - _OcclusionMap:
        m_Texture: {fileID: 0}
        m_Scale: {x: 1, y: 1}
        m_Offset: {x: 0, y: 0}
    - _PostionTexture:
        m_Texture: {fileID: 2800000, guid: abd16b9fdec763f469dc6ecb5c6ff6af, type: 3}
        m_Scale: {x: 1, y: 1}
        m_Offset: {x: 0, y: 0}
    - _SpecGlossMap:
        m_Texture: {fileID: 0}
        m_Scale: {x: 1, y: 1}
        m_Offset: {x: 0, y: 0}
    m_Floats:
    - _AlphaClip: 0
    - _AnimationEnd: 1
    - _AnimationStart: 0
    - _Blend: 0
    - _Bounds: 12.536801
    - _BumpScale: 1
    - _Cull: 2
    - _Cutoff: 0.5
    - _DissolveAmount: 0
    - _DissolveEdgeThickness: 0.031
    - _DissolveNoise: 20.62
    - _DstBlend: 0
    - _EnvironmentReflections: 1
    - _Frame: 205
    - _FresnelPower: 0.141
    - _FresnelVertColPower: 3
    - _GlossMapScale: 0
    - _Glossiness: 0
    - _GlossyReflections: 0
    - _LightMult: 1
    - _Metallic: 0
    - _NumFrames: 120
    - _OcclusionStrength: 1
    - _QueueOffset: 0
    - _ReceiveShadows: 1
    - _Smoothness: 0.625
    - _SmoothnessTextureChannel: 0
    - _SpecularHighlights: 1
    - _Speed: 24
    - _SrcBlend: 1
    - _Surface: 0
    - _SwaySpeed: 50
    - _SwayStrength: 0.2
    - _TextureWidth: 1474
    - _WorkflowMode: 1
    - _ZWrite: 1
    m_Colors:
    - _BaseColor: {r: 1, g: 1, b: 1, a: 1}
    - _Color: {r: 1, g: 1, b: 1, a: 1}
    - _DissolveEdgeColor: {r: 3.9999995, g: 1.3400319, b: 0, a: 1}
    - _EmissionColor: {r: 0, g: 0, b: 0, a: 1}
    - _FresnelCol: {r: 2.0907836, g: 0.00000049017365, b: 0, a: 1}
    - _LightColor: {r: 1.4142135, g: 0.70779955, b: 0, a: 1}
    - _Offset: {r: -7.09, g: -1.5, b: 7.41, a: 0}
    - _ScaleOffset: {r: 1, g: 0.65, b: 1, a: 0}
    - _SpecColor: {r: 0.19999996, g: 0.19999996, b: 0.19999996, a: 1}
    - _Tint: {r: 1, g: 1, b: 1, a: 1}
  m_BuildTextureStacks: []
--- !u!114 &4746345360349982958
MonoBehaviour:
  m_ObjectHideFlags: 11
  m_CorrespondingSourceObject: {fileID: 0}
  m_PrefabInstance: {fileID: 0}
  m_PrefabAsset: {fileID: 0}
  m_GameObject: {fileID: 0}
  m_Enabled: 1
  m_EditorHideFlags: 0
  m_Script: {fileID: 11500000, guid: d0353a89b1f911e48b9e16bdc9f2e058, type: 3}
  m_Name: 
  m_EditorClassIdentifier: 
  version: 2
