('D:\\ICAROS\\WorkingFiles\\VAT_Tools\\build\\TextureCreatorUI\\PYZ-00.pyz',
 [('os',
   'c:\\users\\conta\\appdata\\local\\programs\\python\\python38-32\\lib\\os.py',
   'PYMODULE'),
  ('subprocess',
   'c:\\users\\conta\\appdata\\local\\programs\\python\\python38-32\\lib\\subprocess.py',
   'PYMODULE'),
  ('selectors',
   'c:\\users\\conta\\appdata\\local\\programs\\python\\python38-32\\lib\\selectors.py',
   'PYMODULE'),
  ('contextlib',
   'c:\\users\\conta\\appdata\\local\\programs\\python\\python38-32\\lib\\contextlib.py',
   'PYMODULE'),
  ('threading',
   'c:\\users\\conta\\appdata\\local\\programs\\python\\python38-32\\lib\\threading.py',
   'PYMODULE'),
  ('_threading_local',
   'c:\\users\\conta\\appdata\\local\\programs\\python\\python38-32\\lib\\_threading_local.py',
   'PYMODULE'),
  ('signal',
   'c:\\users\\conta\\appdata\\local\\programs\\python\\python38-32\\lib\\signal.py',
   'PYMODULE'),
  ('_strptime',
   'c:\\users\\conta\\appdata\\local\\programs\\python\\python38-32\\lib\\_strptime.py',
   'PYMODULE'),
  ('datetime',
   'c:\\users\\conta\\appdata\\local\\programs\\python\\python38-32\\lib\\datetime.py',
   'PYMODULE'),
  ('calendar',
   'c:\\users\\conta\\appdata\\local\\programs\\python\\python38-32\\lib\\calendar.py',
   'PYMODULE'),
  ('argparse',
   'c:\\users\\conta\\appdata\\local\\programs\\python\\python38-32\\lib\\argparse.py',
   'PYMODULE'),
  ('textwrap',
   'c:\\users\\conta\\appdata\\local\\programs\\python\\python38-32\\lib\\textwrap.py',
   'PYMODULE'),
  ('copy',
   'c:\\users\\conta\\appdata\\local\\programs\\python\\python38-32\\lib\\copy.py',
   'PYMODULE'),
  ('gettext',
   'c:\\users\\conta\\appdata\\local\\programs\\python\\python38-32\\lib\\gettext.py',
   'PYMODULE'),
  ('struct',
   'c:\\users\\conta\\appdata\\local\\programs\\python\\python38-32\\lib\\struct.py',
   'PYMODULE'),
  ('shutil',
   'c:\\users\\conta\\appdata\\local\\programs\\python\\python38-32\\lib\\shutil.py',
   'PYMODULE'),
  ('zipfile',
   'c:\\users\\conta\\appdata\\local\\programs\\python\\python38-32\\lib\\zipfile.py',
   'PYMODULE'),
  ('py_compile',
   'c:\\users\\conta\\appdata\\local\\programs\\python\\python38-32\\lib\\py_compile.py',
   'PYMODULE'),
  ('importlib.machinery',
   'c:\\users\\conta\\appdata\\local\\programs\\python\\python38-32\\lib\\importlib\\machinery.py',
   'PYMODULE'),
  ('importlib',
   'c:\\users\\conta\\appdata\\local\\programs\\python\\python38-32\\lib\\importlib\\__init__.py',
   'PYMODULE'),
  ('importlib.abc',
   'c:\\users\\conta\\appdata\\local\\programs\\python\\python38-32\\lib\\importlib\\abc.py',
   'PYMODULE'),
  ('importlib._bootstrap',
   'c:\\users\\conta\\appdata\\local\\programs\\python\\python38-32\\lib\\importlib\\_bootstrap.py',
   'PYMODULE'),
  ('importlib._bootstrap_external',
   'c:\\users\\conta\\appdata\\local\\programs\\python\\python38-32\\lib\\importlib\\_bootstrap_external.py',
   'PYMODULE'),
  ('importlib.metadata',
   'c:\\users\\conta\\appdata\\local\\programs\\python\\python38-32\\lib\\importlib\\metadata.py',
   'PYMODULE'),
  ('configparser',
   'c:\\users\\conta\\appdata\\local\\programs\\python\\python38-32\\lib\\configparser.py',
   'PYMODULE'),
  ('pathlib',
   'c:\\users\\conta\\appdata\\local\\programs\\python\\python38-32\\lib\\pathlib.py',
   'PYMODULE'),
  ('urllib.parse',
   'c:\\users\\conta\\appdata\\local\\programs\\python\\python38-32\\lib\\urllib\\parse.py',
   'PYMODULE'),
  ('urllib',
   'c:\\users\\conta\\appdata\\local\\programs\\python\\python38-32\\lib\\urllib\\__init__.py',
   'PYMODULE'),
  ('email',
   'c:\\users\\conta\\appdata\\local\\programs\\python\\python38-32\\lib\\email\\__init__.py',
   'PYMODULE'),
  ('email.parser',
   'c:\\users\\conta\\appdata\\local\\programs\\python\\python38-32\\lib\\email\\parser.py',
   'PYMODULE'),
  ('email._policybase',
   'c:\\users\\conta\\appdata\\local\\programs\\python\\python38-32\\lib\\email\\_policybase.py',
   'PYMODULE'),
  ('email.utils',
   'c:\\users\\conta\\appdata\\local\\programs\\python\\python38-32\\lib\\email\\utils.py',
   'PYMODULE'),
  ('email._parseaddr',
   'c:\\users\\conta\\appdata\\local\\programs\\python\\python38-32\\lib\\email\\_parseaddr.py',
   'PYMODULE'),
  ('socket',
   'c:\\users\\conta\\appdata\\local\\programs\\python\\python38-32\\lib\\socket.py',
   'PYMODULE'),
  ('random',
   'c:\\users\\conta\\appdata\\local\\programs\\python\\python38-32\\lib\\random.py',
   'PYMODULE'),
  ('hashlib',
   'c:\\users\\conta\\appdata\\local\\programs\\python\\python38-32\\lib\\hashlib.py',
   'PYMODULE'),
  ('logging',
   'c:\\users\\conta\\appdata\\local\\programs\\python\\python38-32\\lib\\logging\\__init__.py',
   'PYMODULE'),
  ('pickle',
   'c:\\users\\conta\\appdata\\local\\programs\\python\\python38-32\\lib\\pickle.py',
   'PYMODULE'),
  ('pprint',
   'c:\\users\\conta\\appdata\\local\\programs\\python\\python38-32\\lib\\pprint.py',
   'PYMODULE'),
  ('doctest',
   'c:\\users\\conta\\appdata\\local\\programs\\python\\python38-32\\lib\\doctest.py',
   'PYMODULE'),
  ('unittest',
   'c:\\users\\conta\\appdata\\local\\programs\\python\\python38-32\\lib\\unittest\\__init__.py',
   'PYMODULE'),
  ('unittest.signals',
   'c:\\users\\conta\\appdata\\local\\programs\\python\\python38-32\\lib\\unittest\\signals.py',
   'PYMODULE'),
  ('unittest.main',
   'c:\\users\\conta\\appdata\\local\\programs\\python\\python38-32\\lib\\unittest\\main.py',
   'PYMODULE'),
  ('unittest.runner',
   'c:\\users\\conta\\appdata\\local\\programs\\python\\python38-32\\lib\\unittest\\runner.py',
   'PYMODULE'),
  ('unittest.loader',
   'c:\\users\\conta\\appdata\\local\\programs\\python\\python38-32\\lib\\unittest\\loader.py',
   'PYMODULE'),
  ('unittest.suite',
   'c:\\users\\conta\\appdata\\local\\programs\\python\\python38-32\\lib\\unittest\\suite.py',
   'PYMODULE'),
  ('unittest.case',
   'c:\\users\\conta\\appdata\\local\\programs\\python\\python38-32\\lib\\unittest\\case.py',
   'PYMODULE'),
  ('unittest.async_case',
   'c:\\users\\conta\\appdata\\local\\programs\\python\\python38-32\\lib\\unittest\\async_case.py',
   'PYMODULE'),
  ('asyncio',
   'c:\\users\\conta\\appdata\\local\\programs\\python\\python38-32\\lib\\asyncio\\__init__.py',
   'PYMODULE'),
  ('asyncio.unix_events',
   'c:\\users\\conta\\appdata\\local\\programs\\python\\python38-32\\lib\\asyncio\\unix_events.py',
   'PYMODULE'),
  ('asyncio.log',
   'c:\\users\\conta\\appdata\\local\\programs\\python\\python38-32\\lib\\asyncio\\log.py',
   'PYMODULE'),
  ('asyncio.windows_events',
   'c:\\users\\conta\\appdata\\local\\programs\\python\\python38-32\\lib\\asyncio\\windows_events.py',
   'PYMODULE'),
  ('asyncio.windows_utils',
   'c:\\users\\conta\\appdata\\local\\programs\\python\\python38-32\\lib\\asyncio\\windows_utils.py',
   'PYMODULE'),
  ('tempfile',
   'c:\\users\\conta\\appdata\\local\\programs\\python\\python38-32\\lib\\tempfile.py',
   'PYMODULE'),
  ('asyncio.selector_events',
   'c:\\users\\conta\\appdata\\local\\programs\\python\\python38-32\\lib\\asyncio\\selector_events.py',
   'PYMODULE'),
  ('ssl',
   'c:\\users\\conta\\appdata\\local\\programs\\python\\python38-32\\lib\\ssl.py',
   'PYMODULE'),
  ('base64',
   'c:\\users\\conta\\appdata\\local\\programs\\python\\python38-32\\lib\\base64.py',
   'PYMODULE'),
  ('getopt',
   'c:\\users\\conta\\appdata\\local\\programs\\python\\python38-32\\lib\\getopt.py',
   'PYMODULE'),
  ('asyncio.proactor_events',
   'c:\\users\\conta\\appdata\\local\\programs\\python\\python38-32\\lib\\asyncio\\proactor_events.py',
   'PYMODULE'),
  ('asyncio.base_subprocess',
   'c:\\users\\conta\\appdata\\local\\programs\\python\\python38-32\\lib\\asyncio\\base_subprocess.py',
   'PYMODULE'),
  ('asyncio.subprocess',
   'c:\\users\\conta\\appdata\\local\\programs\\python\\python38-32\\lib\\asyncio\\subprocess.py',
   'PYMODULE'),
  ('asyncio.streams',
   'c:\\users\\conta\\appdata\\local\\programs\\python\\python38-32\\lib\\asyncio\\streams.py',
   'PYMODULE'),
  ('asyncio.queues',
   'c:\\users\\conta\\appdata\\local\\programs\\python\\python38-32\\lib\\asyncio\\queues.py',
   'PYMODULE'),
  ('asyncio.runners',
   'c:\\users\\conta\\appdata\\local\\programs\\python\\python38-32\\lib\\asyncio\\runners.py',
   'PYMODULE'),
  ('asyncio.events',
   'c:\\users\\conta\\appdata\\local\\programs\\python\\python38-32\\lib\\asyncio\\events.py',
   'PYMODULE'),
  ('contextvars',
   'c:\\users\\conta\\appdata\\local\\programs\\python\\python38-32\\lib\\contextvars.py',
   'PYMODULE'),
  ('asyncio.trsock',
   'c:\\users\\conta\\appdata\\local\\programs\\python\\python38-32\\lib\\asyncio\\trsock.py',
   'PYMODULE'),
  ('asyncio.staggered',
   'c:\\users\\conta\\appdata\\local\\programs\\python\\python38-32\\lib\\asyncio\\staggered.py',
   'PYMODULE'),
  ('typing',
   'c:\\users\\conta\\appdata\\local\\programs\\python\\python38-32\\lib\\typing.py',
   'PYMODULE'),
  ('asyncio.tasks',
   'c:\\users\\conta\\appdata\\local\\programs\\python\\python38-32\\lib\\asyncio\\tasks.py',
   'PYMODULE'),
  ('concurrent.futures',
   'c:\\users\\conta\\appdata\\local\\programs\\python\\python38-32\\lib\\concurrent\\futures\\__init__.py',
   'PYMODULE'),
  ('concurrent.futures.thread',
   'c:\\users\\conta\\appdata\\local\\programs\\python\\python38-32\\lib\\concurrent\\futures\\thread.py',
   'PYMODULE'),
  ('queue',
   'c:\\users\\conta\\appdata\\local\\programs\\python\\python38-32\\lib\\queue.py',
   'PYMODULE'),
  ('concurrent.futures.process',
   'c:\\users\\conta\\appdata\\local\\programs\\python\\python38-32\\lib\\concurrent\\futures\\process.py',
   'PYMODULE'),
  ('multiprocessing.queues',
   'c:\\users\\conta\\appdata\\local\\programs\\python\\python38-32\\lib\\multiprocessing\\queues.py',
   'PYMODULE'),
  ('multiprocessing.synchronize',
   'c:\\users\\conta\\appdata\\local\\programs\\python\\python38-32\\lib\\multiprocessing\\synchronize.py',
   'PYMODULE'),
  ('multiprocessing.heap',
   'c:\\users\\conta\\appdata\\local\\programs\\python\\python38-32\\lib\\multiprocessing\\heap.py',
   'PYMODULE'),
  ('multiprocessing.resource_tracker',
   'c:\\users\\conta\\appdata\\local\\programs\\python\\python38-32\\lib\\multiprocessing\\resource_tracker.py',
   'PYMODULE'),
  ('multiprocessing.spawn',
   'c:\\users\\conta\\appdata\\local\\programs\\python\\python38-32\\lib\\multiprocessing\\spawn.py',
   'PYMODULE'),
  ('runpy',
   'c:\\users\\conta\\appdata\\local\\programs\\python\\python38-32\\lib\\runpy.py',
   'PYMODULE'),
  ('pkgutil',
   'c:\\users\\conta\\appdata\\local\\programs\\python\\python38-32\\lib\\pkgutil.py',
   'PYMODULE'),
  ('zipimport',
   'c:\\users\\conta\\appdata\\local\\programs\\python\\python38-32\\lib\\zipimport.py',
   'PYMODULE'),
  ('multiprocessing.process',
   'c:\\users\\conta\\appdata\\local\\programs\\python\\python38-32\\lib\\multiprocessing\\process.py',
   'PYMODULE'),
  ('multiprocessing.util',
   'c:\\users\\conta\\appdata\\local\\programs\\python\\python38-32\\lib\\multiprocessing\\util.py',
   'PYMODULE'),
  ('multiprocessing.forkserver',
   'c:\\users\\conta\\appdata\\local\\programs\\python\\python38-32\\lib\\multiprocessing\\forkserver.py',
   'PYMODULE'),
  ('multiprocessing.context',
   'c:\\users\\conta\\appdata\\local\\programs\\python\\python38-32\\lib\\multiprocessing\\context.py',
   'PYMODULE'),
  ('multiprocessing.popen_spawn_win32',
   'c:\\users\\conta\\appdata\\local\\programs\\python\\python38-32\\lib\\multiprocessing\\popen_spawn_win32.py',
   'PYMODULE'),
  ('multiprocessing.popen_forkserver',
   'c:\\users\\conta\\appdata\\local\\programs\\python\\python38-32\\lib\\multiprocessing\\popen_forkserver.py',
   'PYMODULE'),
  ('multiprocessing.popen_spawn_posix',
   'c:\\users\\conta\\appdata\\local\\programs\\python\\python38-32\\lib\\multiprocessing\\popen_spawn_posix.py',
   'PYMODULE'),
  ('multiprocessing.popen_fork',
   'c:\\users\\conta\\appdata\\local\\programs\\python\\python38-32\\lib\\multiprocessing\\popen_fork.py',
   'PYMODULE'),
  ('multiprocessing.sharedctypes',
   'c:\\users\\conta\\appdata\\local\\programs\\python\\python38-32\\lib\\multiprocessing\\sharedctypes.py',
   'PYMODULE'),
  ('ctypes',
   'c:\\users\\conta\\appdata\\local\\programs\\python\\python38-32\\lib\\ctypes\\__init__.py',
   'PYMODULE'),
  ('ctypes._endian',
   'c:\\users\\conta\\appdata\\local\\programs\\python\\python38-32\\lib\\ctypes\\_endian.py',
   'PYMODULE'),
  ('multiprocessing.pool',
   'c:\\users\\conta\\appdata\\local\\programs\\python\\python38-32\\lib\\multiprocessing\\pool.py',
   'PYMODULE'),
  ('multiprocessing.dummy',
   'c:\\users\\conta\\appdata\\local\\programs\\python\\python38-32\\lib\\multiprocessing\\dummy\\__init__.py',
   'PYMODULE'),
  ('multiprocessing.dummy.connection',
   'c:\\users\\conta\\appdata\\local\\programs\\python\\python38-32\\lib\\multiprocessing\\dummy\\connection.py',
   'PYMODULE'),
  ('multiprocessing.managers',
   'c:\\users\\conta\\appdata\\local\\programs\\python\\python38-32\\lib\\multiprocessing\\managers.py',
   'PYMODULE'),
  ('multiprocessing.shared_memory',
   'c:\\users\\conta\\appdata\\local\\programs\\python\\python38-32\\lib\\multiprocessing\\shared_memory.py',
   'PYMODULE'),
  ('secrets',
   'c:\\users\\conta\\appdata\\local\\programs\\python\\python38-32\\lib\\secrets.py',
   'PYMODULE'),
  ('hmac',
   'c:\\users\\conta\\appdata\\local\\programs\\python\\python38-32\\lib\\hmac.py',
   'PYMODULE'),
  ('multiprocessing.reduction',
   'c:\\users\\conta\\appdata\\local\\programs\\python\\python38-32\\lib\\multiprocessing\\reduction.py',
   'PYMODULE'),
  ('multiprocessing.resource_sharer',
   'c:\\users\\conta\\appdata\\local\\programs\\python\\python38-32\\lib\\multiprocessing\\resource_sharer.py',
   'PYMODULE'),
  ('multiprocessing.connection',
   'c:\\users\\conta\\appdata\\local\\programs\\python\\python38-32\\lib\\multiprocessing\\connection.py',
   'PYMODULE'),
  ('xmlrpc.client',
   'c:\\users\\conta\\appdata\\local\\programs\\python\\python38-32\\lib\\xmlrpc\\client.py',
   'PYMODULE'),
  ('xmlrpc',
   'c:\\users\\conta\\appdata\\local\\programs\\python\\python38-32\\lib\\xmlrpc\\__init__.py',
   'PYMODULE'),
  ('gzip',
   'c:\\users\\conta\\appdata\\local\\programs\\python\\python38-32\\lib\\gzip.py',
   'PYMODULE'),
  ('_compression',
   'c:\\users\\conta\\appdata\\local\\programs\\python\\python38-32\\lib\\_compression.py',
   'PYMODULE'),
  ('xml.parsers.expat',
   'c:\\users\\conta\\appdata\\local\\programs\\python\\python38-32\\lib\\xml\\parsers\\expat.py',
   'PYMODULE'),
  ('xml.parsers',
   'c:\\users\\conta\\appdata\\local\\programs\\python\\python38-32\\lib\\xml\\parsers\\__init__.py',
   'PYMODULE'),
  ('xml',
   'c:\\users\\conta\\appdata\\local\\programs\\python\\python38-32\\lib\\xml\\__init__.py',
   'PYMODULE'),
  ('xml.sax.expatreader',
   'c:\\users\\conta\\appdata\\local\\programs\\python\\python38-32\\lib\\xml\\sax\\expatreader.py',
   'PYMODULE'),
  ('xml.sax.saxutils',
   'c:\\users\\conta\\appdata\\local\\programs\\python\\python38-32\\lib\\xml\\sax\\saxutils.py',
   'PYMODULE'),
  ('urllib.request',
   'c:\\users\\conta\\appdata\\local\\programs\\python\\python38-32\\lib\\urllib\\request.py',
   'PYMODULE'),
  ('getpass',
   'c:\\users\\conta\\appdata\\local\\programs\\python\\python38-32\\lib\\getpass.py',
   'PYMODULE'),
  ('nturl2path',
   'c:\\users\\conta\\appdata\\local\\programs\\python\\python38-32\\lib\\nturl2path.py',
   'PYMODULE'),
  ('ftplib',
   'c:\\users\\conta\\appdata\\local\\programs\\python\\python38-32\\lib\\ftplib.py',
   'PYMODULE'),
  ('netrc',
   'c:\\users\\conta\\appdata\\local\\programs\\python\\python38-32\\lib\\netrc.py',
   'PYMODULE'),
  ('shlex',
   'c:\\users\\conta\\appdata\\local\\programs\\python\\python38-32\\lib\\shlex.py',
   'PYMODULE'),
  ('mimetypes',
   'c:\\users\\conta\\appdata\\local\\programs\\python\\python38-32\\lib\\mimetypes.py',
   'PYMODULE'),
  ('http.cookiejar',
   'c:\\users\\conta\\appdata\\local\\programs\\python\\python38-32\\lib\\http\\cookiejar.py',
   'PYMODULE'),
  ('http',
   'c:\\users\\conta\\appdata\\local\\programs\\python\\python38-32\\lib\\http\\__init__.py',
   'PYMODULE'),
  ('urllib.response',
   'c:\\users\\conta\\appdata\\local\\programs\\python\\python38-32\\lib\\urllib\\response.py',
   'PYMODULE'),
  ('urllib.error',
   'c:\\users\\conta\\appdata\\local\\programs\\python\\python38-32\\lib\\urllib\\error.py',
   'PYMODULE'),
  ('xml.sax',
   'c:\\users\\conta\\appdata\\local\\programs\\python\\python38-32\\lib\\xml\\sax\\__init__.py',
   'PYMODULE'),
  ('xml.sax.handler',
   'c:\\users\\conta\\appdata\\local\\programs\\python\\python38-32\\lib\\xml\\sax\\handler.py',
   'PYMODULE'),
  ('xml.sax._exceptions',
   'c:\\users\\conta\\appdata\\local\\programs\\python\\python38-32\\lib\\xml\\sax\\_exceptions.py',
   'PYMODULE'),
  ('xml.sax.xmlreader',
   'c:\\users\\conta\\appdata\\local\\programs\\python\\python38-32\\lib\\xml\\sax\\xmlreader.py',
   'PYMODULE'),
  ('http.client',
   'c:\\users\\conta\\appdata\\local\\programs\\python\\python38-32\\lib\\http\\client.py',
   'PYMODULE'),
  ('email.message',
   'c:\\users\\conta\\appdata\\local\\programs\\python\\python38-32\\lib\\email\\message.py',
   'PYMODULE'),
  ('email.policy',
   'c:\\users\\conta\\appdata\\local\\programs\\python\\python38-32\\lib\\email\\policy.py',
   'PYMODULE'),
  ('email.contentmanager',
   'c:\\users\\conta\\appdata\\local\\programs\\python\\python38-32\\lib\\email\\contentmanager.py',
   'PYMODULE'),
  ('email.quoprimime',
   'c:\\users\\conta\\appdata\\local\\programs\\python\\python38-32\\lib\\email\\quoprimime.py',
   'PYMODULE'),
  ('email.headerregistry',
   'c:\\users\\conta\\appdata\\local\\programs\\python\\python38-32\\lib\\email\\headerregistry.py',
   'PYMODULE'),
  ('email.iterators',
   'c:\\users\\conta\\appdata\\local\\programs\\python\\python38-32\\lib\\email\\iterators.py',
   'PYMODULE'),
  ('email.generator',
   'c:\\users\\conta\\appdata\\local\\programs\\python\\python38-32\\lib\\email\\generator.py',
   'PYMODULE'),
  ('email._encoded_words',
   'c:\\users\\conta\\appdata\\local\\programs\\python\\python38-32\\lib\\email\\_encoded_words.py',
   'PYMODULE'),
  ('quopri',
   'c:\\users\\conta\\appdata\\local\\programs\\python\\python38-32\\lib\\quopri.py',
   'PYMODULE'),
  ('uu',
   'c:\\users\\conta\\appdata\\local\\programs\\python\\python38-32\\lib\\uu.py',
   'PYMODULE'),
  ('optparse',
   'c:\\users\\conta\\appdata\\local\\programs\\python\\python38-32\\lib\\optparse.py',
   'PYMODULE'),
  ('decimal',
   'c:\\users\\conta\\appdata\\local\\programs\\python\\python38-32\\lib\\decimal.py',
   'PYMODULE'),
  ('_pydecimal',
   'c:\\users\\conta\\appdata\\local\\programs\\python\\python38-32\\lib\\_pydecimal.py',
   'PYMODULE'),
  ('numbers',
   'c:\\users\\conta\\appdata\\local\\programs\\python\\python38-32\\lib\\numbers.py',
   'PYMODULE'),
  ('multiprocessing',
   'c:\\users\\conta\\appdata\\local\\programs\\python\\python38-32\\lib\\multiprocessing\\__init__.py',
   'PYMODULE'),
  ('concurrent.futures._base',
   'c:\\users\\conta\\appdata\\local\\programs\\python\\python38-32\\lib\\concurrent\\futures\\_base.py',
   'PYMODULE'),
  ('concurrent',
   'c:\\users\\conta\\appdata\\local\\programs\\python\\python38-32\\lib\\concurrent\\__init__.py',
   'PYMODULE'),
  ('asyncio.base_tasks',
   'c:\\users\\conta\\appdata\\local\\programs\\python\\python38-32\\lib\\asyncio\\base_tasks.py',
   'PYMODULE'),
  ('asyncio.locks',
   'c:\\users\\conta\\appdata\\local\\programs\\python\\python38-32\\lib\\asyncio\\locks.py',
   'PYMODULE'),
  ('asyncio.sslproto',
   'c:\\users\\conta\\appdata\\local\\programs\\python\\python38-32\\lib\\asyncio\\sslproto.py',
   'PYMODULE'),
  ('asyncio.transports',
   'c:\\users\\conta\\appdata\\local\\programs\\python\\python38-32\\lib\\asyncio\\transports.py',
   'PYMODULE'),
  ('asyncio.base_events',
   'c:\\users\\conta\\appdata\\local\\programs\\python\\python38-32\\lib\\asyncio\\base_events.py',
   'PYMODULE'),
  ('asyncio.protocols',
   'c:\\users\\conta\\appdata\\local\\programs\\python\\python38-32\\lib\\asyncio\\protocols.py',
   'PYMODULE'),
  ('asyncio.futures',
   'c:\\users\\conta\\appdata\\local\\programs\\python\\python38-32\\lib\\asyncio\\futures.py',
   'PYMODULE'),
  ('asyncio.coroutines',
   'c:\\users\\conta\\appdata\\local\\programs\\python\\python38-32\\lib\\asyncio\\coroutines.py',
   'PYMODULE'),
  ('asyncio.base_futures',
   'c:\\users\\conta\\appdata\\local\\programs\\python\\python38-32\\lib\\asyncio\\base_futures.py',
   'PYMODULE'),
  ('asyncio.exceptions',
   'c:\\users\\conta\\appdata\\local\\programs\\python\\python38-32\\lib\\asyncio\\exceptions.py',
   'PYMODULE'),
  ('asyncio.format_helpers',
   'c:\\users\\conta\\appdata\\local\\programs\\python\\python38-32\\lib\\asyncio\\format_helpers.py',
   'PYMODULE'),
  ('asyncio.constants',
   'c:\\users\\conta\\appdata\\local\\programs\\python\\python38-32\\lib\\asyncio\\constants.py',
   'PYMODULE'),
  ('unittest.result',
   'c:\\users\\conta\\appdata\\local\\programs\\python\\python38-32\\lib\\unittest\\result.py',
   'PYMODULE'),
  ('unittest.util',
   'c:\\users\\conta\\appdata\\local\\programs\\python\\python38-32\\lib\\unittest\\util.py',
   'PYMODULE'),
  ('pdb',
   'c:\\users\\conta\\appdata\\local\\programs\\python\\python38-32\\lib\\pdb.py',
   'PYMODULE'),
  ('pydoc',
   'c:\\users\\conta\\appdata\\local\\programs\\python\\python38-32\\lib\\pydoc.py',
   'PYMODULE'),
  ('webbrowser',
   'c:\\users\\conta\\appdata\\local\\programs\\python\\python38-32\\lib\\webbrowser.py',
   'PYMODULE'),
  ('http.server',
   'c:\\users\\conta\\appdata\\local\\programs\\python\\python38-32\\lib\\http\\server.py',
   'PYMODULE'),
  ('socketserver',
   'c:\\users\\conta\\appdata\\local\\programs\\python\\python38-32\\lib\\socketserver.py',
   'PYMODULE'),
  ('html',
   'c:\\users\\conta\\appdata\\local\\programs\\python\\python38-32\\lib\\html\\__init__.py',
   'PYMODULE'),
  ('html.entities',
   'c:\\users\\conta\\appdata\\local\\programs\\python\\python38-32\\lib\\html\\entities.py',
   'PYMODULE'),
  ('pydoc_data.topics',
   'c:\\users\\conta\\appdata\\local\\programs\\python\\python38-32\\lib\\pydoc_data\\topics.py',
   'PYMODULE'),
  ('pydoc_data',
   'c:\\users\\conta\\appdata\\local\\programs\\python\\python38-32\\lib\\pydoc_data\\__init__.py',
   'PYMODULE'),
  ('tty',
   'c:\\users\\conta\\appdata\\local\\programs\\python\\python38-32\\lib\\tty.py',
   'PYMODULE'),
  ('sysconfig',
   'c:\\users\\conta\\appdata\\local\\programs\\python\\python38-32\\lib\\sysconfig.py',
   'PYMODULE'),
  ('_osx_support',
   'c:\\users\\conta\\appdata\\local\\programs\\python\\python38-32\\lib\\_osx_support.py',
   'PYMODULE'),
  ('distutils.log',
   'c:\\users\\conta\\appdata\\local\\programs\\python\\python38-32\\lib\\distutils\\log.py',
   'PYMODULE'),
  ('distutils',
   'c:\\users\\conta\\appdata\\local\\programs\\python\\python38-32\\lib\\distutils\\__init__.py',
   'PYMODULE'),
  ('distutils.archive_util',
   'c:\\users\\conta\\appdata\\local\\programs\\python\\python38-32\\lib\\distutils\\archive_util.py',
   'PYMODULE'),
  ('distutils.dir_util',
   'c:\\users\\conta\\appdata\\local\\programs\\python\\python38-32\\lib\\distutils\\dir_util.py',
   'PYMODULE'),
  ('distutils.file_util',
   'c:\\users\\conta\\appdata\\local\\programs\\python\\python38-32\\lib\\distutils\\file_util.py',
   'PYMODULE'),
  ('distutils.dep_util',
   'c:\\users\\conta\\appdata\\local\\programs\\python\\python38-32\\lib\\distutils\\dep_util.py',
   'PYMODULE'),
  ('distutils.spawn',
   'c:\\users\\conta\\appdata\\local\\programs\\python\\python38-32\\lib\\distutils\\spawn.py',
   'PYMODULE'),
  ('distutils.debug',
   'c:\\users\\conta\\appdata\\local\\programs\\python\\python38-32\\lib\\distutils\\debug.py',
   'PYMODULE'),
  ('distutils.errors',
   'c:\\users\\conta\\appdata\\local\\programs\\python\\python38-32\\lib\\distutils\\errors.py',
   'PYMODULE'),
  ('distutils.ccompiler',
   'c:\\users\\conta\\appdata\\local\\programs\\python\\python38-32\\lib\\distutils\\ccompiler.py',
   'PYMODULE'),
  ('distutils.fancy_getopt',
   'c:\\users\\conta\\appdata\\local\\programs\\python\\python38-32\\lib\\distutils\\fancy_getopt.py',
   'PYMODULE'),
  ('distutils.util',
   'c:\\users\\conta\\appdata\\local\\programs\\python\\python38-32\\lib\\distutils\\util.py',
   'PYMODULE'),
  ('distutils.filelist',
   'c:\\users\\conta\\appdata\\local\\programs\\python\\python38-32\\lib\\distutils\\filelist.py',
   'PYMODULE'),
  ('distutils.sysconfig',
   'c:\\users\\conta\\appdata\\local\\programs\\python\\python38-32\\lib\\distutils\\sysconfig.py',
   'PYMODULE'),
  ('distutils.text_file',
   'c:\\users\\conta\\appdata\\local\\programs\\python\\python38-32\\lib\\distutils\\text_file.py',
   'PYMODULE'),
  ('platform',
   'c:\\users\\conta\\appdata\\local\\programs\\python\\python38-32\\lib\\platform.py',
   'PYMODULE'),
  ('plistlib',
   'c:\\users\\conta\\appdata\\local\\programs\\python\\python38-32\\lib\\plistlib.py',
   'PYMODULE'),
  ('glob',
   'c:\\users\\conta\\appdata\\local\\programs\\python\\python38-32\\lib\\glob.py',
   'PYMODULE'),
  ('code',
   'c:\\users\\conta\\appdata\\local\\programs\\python\\python38-32\\lib\\code.py',
   'PYMODULE'),
  ('codeop',
   'c:\\users\\conta\\appdata\\local\\programs\\python\\python38-32\\lib\\codeop.py',
   'PYMODULE'),
  ('dis',
   'c:\\users\\conta\\appdata\\local\\programs\\python\\python38-32\\lib\\dis.py',
   'PYMODULE'),
  ('opcode',
   'c:\\users\\conta\\appdata\\local\\programs\\python\\python38-32\\lib\\opcode.py',
   'PYMODULE'),
  ('bdb',
   'c:\\users\\conta\\appdata\\local\\programs\\python\\python38-32\\lib\\bdb.py',
   'PYMODULE'),
  ('cmd',
   'c:\\users\\conta\\appdata\\local\\programs\\python\\python38-32\\lib\\cmd.py',
   'PYMODULE'),
  ('inspect',
   'c:\\users\\conta\\appdata\\local\\programs\\python\\python38-32\\lib\\inspect.py',
   'PYMODULE'),
  ('token',
   'c:\\users\\conta\\appdata\\local\\programs\\python\\python38-32\\lib\\token.py',
   'PYMODULE'),
  ('difflib',
   'c:\\users\\conta\\appdata\\local\\programs\\python\\python38-32\\lib\\difflib.py',
   'PYMODULE'),
  ('__future__',
   'c:\\users\\conta\\appdata\\local\\programs\\python\\python38-32\\lib\\__future__.py',
   'PYMODULE'),
  ('_compat_pickle',
   'c:\\users\\conta\\appdata\\local\\programs\\python\\python38-32\\lib\\_compat_pickle.py',
   'PYMODULE'),
  ('string',
   'c:\\users\\conta\\appdata\\local\\programs\\python\\python38-32\\lib\\string.py',
   'PYMODULE'),
  ('bisect',
   'c:\\users\\conta\\appdata\\local\\programs\\python\\python38-32\\lib\\bisect.py',
   'PYMODULE'),
  ('email.feedparser',
   'c:\\users\\conta\\appdata\\local\\programs\\python\\python38-32\\lib\\email\\feedparser.py',
   'PYMODULE'),
  ('email._header_value_parser',
   'c:\\users\\conta\\appdata\\local\\programs\\python\\python38-32\\lib\\email\\_header_value_parser.py',
   'PYMODULE'),
  ('email.header',
   'c:\\users\\conta\\appdata\\local\\programs\\python\\python38-32\\lib\\email\\header.py',
   'PYMODULE'),
  ('email.base64mime',
   'c:\\users\\conta\\appdata\\local\\programs\\python\\python38-32\\lib\\email\\base64mime.py',
   'PYMODULE'),
  ('email.charset',
   'c:\\users\\conta\\appdata\\local\\programs\\python\\python38-32\\lib\\email\\charset.py',
   'PYMODULE'),
  ('email.encoders',
   'c:\\users\\conta\\appdata\\local\\programs\\python\\python38-32\\lib\\email\\encoders.py',
   'PYMODULE'),
  ('email.errors',
   'c:\\users\\conta\\appdata\\local\\programs\\python\\python38-32\\lib\\email\\errors.py',
   'PYMODULE'),
  ('csv',
   'c:\\users\\conta\\appdata\\local\\programs\\python\\python38-32\\lib\\csv.py',
   'PYMODULE'),
  ('tokenize',
   'c:\\users\\conta\\appdata\\local\\programs\\python\\python38-32\\lib\\tokenize.py',
   'PYMODULE'),
  ('importlib.util',
   'c:\\users\\conta\\appdata\\local\\programs\\python\\python38-32\\lib\\importlib\\util.py',
   'PYMODULE'),
  ('tarfile',
   'c:\\users\\conta\\appdata\\local\\programs\\python\\python38-32\\lib\\tarfile.py',
   'PYMODULE'),
  ('lzma',
   'c:\\users\\conta\\appdata\\local\\programs\\python\\python38-32\\lib\\lzma.py',
   'PYMODULE'),
  ('bz2',
   'c:\\users\\conta\\appdata\\local\\programs\\python\\python38-32\\lib\\bz2.py',
   'PYMODULE'),
  ('fnmatch',
   'c:\\users\\conta\\appdata\\local\\programs\\python\\python38-32\\lib\\fnmatch.py',
   'PYMODULE'),
  ('ntpath',
   'c:\\users\\conta\\appdata\\local\\programs\\python\\python38-32\\lib\\ntpath.py',
   'PYMODULE'),
  ('genericpath',
   'c:\\users\\conta\\appdata\\local\\programs\\python\\python38-32\\lib\\genericpath.py',
   'PYMODULE'),
  ('posixpath',
   'c:\\users\\conta\\appdata\\local\\programs\\python\\python38-32\\lib\\posixpath.py',
   'PYMODULE'),
  ('stat',
   'c:\\users\\conta\\appdata\\local\\programs\\python\\python38-32\\lib\\stat.py',
   'PYMODULE'),
  ('pkg_resources',
   'c:\\users\\conta\\appdata\\local\\programs\\python\\python38-32\\lib\\site-packages\\pkg_resources\\__init__.py',
   'PYMODULE'),
  ('pkg_resources.py2_warn',
   'c:\\users\\conta\\appdata\\local\\programs\\python\\python38-32\\lib\\site-packages\\pkg_resources\\py2_warn.py',
   'PYMODULE'),
  ('pkg_resources._vendor',
   'c:\\users\\conta\\appdata\\local\\programs\\python\\python38-32\\lib\\site-packages\\pkg_resources\\_vendor\\__init__.py',
   'PYMODULE'),
  ('pkg_resources._vendor.packaging',
   'c:\\users\\conta\\appdata\\local\\programs\\python\\python38-32\\lib\\site-packages\\pkg_resources\\_vendor\\packaging\\__init__.py',
   'PYMODULE'),
  ('pkg_resources._vendor.packaging.utils',
   'c:\\users\\conta\\appdata\\local\\programs\\python\\python38-32\\lib\\site-packages\\pkg_resources\\_vendor\\packaging\\utils.py',
   'PYMODULE'),
  ('pkg_resources._vendor.packaging._compat',
   'c:\\users\\conta\\appdata\\local\\programs\\python\\python38-32\\lib\\site-packages\\pkg_resources\\_vendor\\packaging\\_compat.py',
   'PYMODULE'),
  ('pkg_resources._vendor.six',
   'c:\\users\\conta\\appdata\\local\\programs\\python\\python38-32\\lib\\site-packages\\pkg_resources\\_vendor\\six.py',
   'PYMODULE'),
  ('pkg_resources._vendor.packaging.__about__',
   'c:\\users\\conta\\appdata\\local\\programs\\python\\python38-32\\lib\\site-packages\\pkg_resources\\_vendor\\packaging\\__about__.py',
   'PYMODULE'),
  ('pkg_resources._vendor.packaging._structures',
   'c:\\users\\conta\\appdata\\local\\programs\\python\\python38-32\\lib\\site-packages\\pkg_resources\\_vendor\\packaging\\_structures.py',
   'PYMODULE'),
  ('pkg_resources._vendor.packaging.requirements',
   'c:\\users\\conta\\appdata\\local\\programs\\python\\python38-32\\lib\\site-packages\\pkg_resources\\_vendor\\packaging\\requirements.py',
   'PYMODULE'),
  ('pkg_resources._vendor.packaging.markers',
   'c:\\users\\conta\\appdata\\local\\programs\\python\\python38-32\\lib\\site-packages\\pkg_resources\\_vendor\\packaging\\markers.py',
   'PYMODULE'),
  ('pkg_resources._vendor.appdirs',
   'c:\\users\\conta\\appdata\\local\\programs\\python\\python38-32\\lib\\site-packages\\pkg_resources\\_vendor\\appdirs.py',
   'PYMODULE'),
  ('pkg_resources._vendor.pyparsing',
   'c:\\users\\conta\\appdata\\local\\programs\\python\\python38-32\\lib\\site-packages\\pkg_resources\\_vendor\\pyparsing.py',
   'PYMODULE'),
  ('uuid',
   'c:\\users\\conta\\appdata\\local\\programs\\python\\python38-32\\lib\\uuid.py',
   'PYMODULE'),
  ('ctypes.util',
   'c:\\users\\conta\\appdata\\local\\programs\\python\\python38-32\\lib\\ctypes\\util.py',
   'PYMODULE'),
  ('ctypes._aix',
   'c:\\users\\conta\\appdata\\local\\programs\\python\\python38-32\\lib\\ctypes\\_aix.py',
   'PYMODULE'),
  ('ctypes.macholib.dyld',
   'c:\\users\\conta\\appdata\\local\\programs\\python\\python38-32\\lib\\ctypes\\macholib\\dyld.py',
   'PYMODULE'),
  ('ctypes.macholib',
   'c:\\users\\conta\\appdata\\local\\programs\\python\\python38-32\\lib\\ctypes\\macholib\\__init__.py',
   'PYMODULE'),
  ('ctypes.macholib.dylib',
   'c:\\users\\conta\\appdata\\local\\programs\\python\\python38-32\\lib\\ctypes\\macholib\\dylib.py',
   'PYMODULE'),
  ('ctypes.macholib.framework',
   'c:\\users\\conta\\appdata\\local\\programs\\python\\python38-32\\lib\\ctypes\\macholib\\framework.py',
   'PYMODULE'),
  ('pkg_resources._vendor.packaging.version',
   'c:\\users\\conta\\appdata\\local\\programs\\python\\python38-32\\lib\\site-packages\\pkg_resources\\_vendor\\packaging\\version.py',
   'PYMODULE'),
  ('pkg_resources._vendor.packaging.specifiers',
   'c:\\users\\conta\\appdata\\local\\programs\\python\\python38-32\\lib\\site-packages\\pkg_resources\\_vendor\\packaging\\specifiers.py',
   'PYMODULE'),
  ('pkg_resources.py31compat',
   'c:\\users\\conta\\appdata\\local\\programs\\python\\python38-32\\lib\\site-packages\\pkg_resources\\py31compat.py',
   'PYMODULE'),
  ('pkg_resources.extern',
   'c:\\users\\conta\\appdata\\local\\programs\\python\\python38-32\\lib\\site-packages\\pkg_resources\\extern\\__init__.py',
   'PYMODULE'),
  ('imp',
   'c:\\users\\conta\\appdata\\local\\programs\\python\\python38-32\\lib\\imp.py',
   'PYMODULE'),
  ('tracemalloc',
   'c:\\users\\conta\\appdata\\local\\programs\\python\\python38-32\\lib\\tracemalloc.py',
   'PYMODULE'),
  ('stringprep',
   'c:\\users\\conta\\appdata\\local\\programs\\python\\python38-32\\lib\\stringprep.py',
   'PYMODULE'),
  ('_py_abc',
   'c:\\users\\conta\\appdata\\local\\programs\\python\\python38-32\\lib\\_py_abc.py',
   'PYMODULE'),
  ('imageio',
   'c:\\users\\conta\\appdata\\local\\programs\\python\\python38-32\\lib\\site-packages\\imageio\\__init__.py',
   'PYMODULE'),
  ('imageio.plugins',
   'c:\\users\\conta\\appdata\\local\\programs\\python\\python38-32\\lib\\site-packages\\imageio\\plugins\\__init__.py',
   'PYMODULE'),
  ('imageio.plugins.example',
   'c:\\users\\conta\\appdata\\local\\programs\\python\\python38-32\\lib\\site-packages\\imageio\\plugins\\example.py',
   'PYMODULE'),
  ('imageio.plugins.spe',
   'c:\\users\\conta\\appdata\\local\\programs\\python\\python38-32\\lib\\site-packages\\imageio\\plugins\\spe.py',
   'PYMODULE'),
  ('imageio.plugins.lytro',
   'c:\\users\\conta\\appdata\\local\\programs\\python\\python38-32\\lib\\site-packages\\imageio\\plugins\\lytro.py',
   'PYMODULE'),
  ('json',
   'c:\\users\\conta\\appdata\\local\\programs\\python\\python38-32\\lib\\json\\__init__.py',
   'PYMODULE'),
  ('json.encoder',
   'c:\\users\\conta\\appdata\\local\\programs\\python\\python38-32\\lib\\json\\encoder.py',
   'PYMODULE'),
  ('json.decoder',
   'c:\\users\\conta\\appdata\\local\\programs\\python\\python38-32\\lib\\json\\decoder.py',
   'PYMODULE'),
  ('json.scanner',
   'c:\\users\\conta\\appdata\\local\\programs\\python\\python38-32\\lib\\json\\scanner.py',
   'PYMODULE'),
  ('imageio.plugins.gdal',
   'c:\\users\\conta\\appdata\\local\\programs\\python\\python38-32\\lib\\site-packages\\imageio\\plugins\\gdal.py',
   'PYMODULE'),
  ('imageio.plugins.simpleitk',
   'c:\\users\\conta\\appdata\\local\\programs\\python\\python38-32\\lib\\site-packages\\imageio\\plugins\\simpleitk.py',
   'PYMODULE'),
  ('imageio.plugins.fits',
   'c:\\users\\conta\\appdata\\local\\programs\\python\\python38-32\\lib\\site-packages\\imageio\\plugins\\fits.py',
   'PYMODULE'),
  ('imageio.plugins.feisem',
   'c:\\users\\conta\\appdata\\local\\programs\\python\\python38-32\\lib\\site-packages\\imageio\\plugins\\feisem.py',
   'PYMODULE'),
  ('imageio.plugins.swf',
   'c:\\users\\conta\\appdata\\local\\programs\\python\\python38-32\\lib\\site-packages\\imageio\\plugins\\swf.py',
   'PYMODULE'),
  ('imageio.plugins._swf',
   'c:\\users\\conta\\appdata\\local\\programs\\python\\python38-32\\lib\\site-packages\\imageio\\plugins\\_swf.py',
   'PYMODULE'),
  ('imageio.plugins.npz',
   'c:\\users\\conta\\appdata\\local\\programs\\python\\python38-32\\lib\\site-packages\\imageio\\plugins\\npz.py',
   'PYMODULE'),
  ('imageio.plugins.dicom',
   'c:\\users\\conta\\appdata\\local\\programs\\python\\python38-32\\lib\\site-packages\\imageio\\plugins\\dicom.py',
   'PYMODULE'),
  ('imageio.plugins._dicom',
   'c:\\users\\conta\\appdata\\local\\programs\\python\\python38-32\\lib\\site-packages\\imageio\\plugins\\_dicom.py',
   'PYMODULE'),
  ('imageio.plugins.bsdf',
   'c:\\users\\conta\\appdata\\local\\programs\\python\\python38-32\\lib\\site-packages\\imageio\\plugins\\bsdf.py',
   'PYMODULE'),
  ('imageio.plugins._bsdf',
   'c:\\users\\conta\\appdata\\local\\programs\\python\\python38-32\\lib\\site-packages\\imageio\\plugins\\_bsdf.py',
   'PYMODULE'),
  ('imageio.plugins.ffmpeg',
   'c:\\users\\conta\\appdata\\local\\programs\\python\\python38-32\\lib\\site-packages\\imageio\\plugins\\ffmpeg.py',
   'PYMODULE'),
  ('imageio.plugins.freeimagemulti',
   'c:\\users\\conta\\appdata\\local\\programs\\python\\python38-32\\lib\\site-packages\\imageio\\plugins\\freeimagemulti.py',
   'PYMODULE'),
  ('imageio.plugins._freeimage',
   'c:\\users\\conta\\appdata\\local\\programs\\python\\python38-32\\lib\\site-packages\\imageio\\plugins\\_freeimage.py',
   'PYMODULE'),
  ('imageio.plugins.freeimage',
   'c:\\users\\conta\\appdata\\local\\programs\\python\\python38-32\\lib\\site-packages\\imageio\\plugins\\freeimage.py',
   'PYMODULE'),
  ('imageio.plugins.grab',
   'c:\\users\\conta\\appdata\\local\\programs\\python\\python38-32\\lib\\site-packages\\imageio\\plugins\\grab.py',
   'PYMODULE'),
  ('PIL.ImageGrab',
   'c:\\users\\conta\\appdata\\local\\programs\\python\\python38-32\\lib\\site-packages\\PIL\\ImageGrab.py',
   'PYMODULE'),
  ('PIL.BmpImagePlugin',
   'c:\\users\\conta\\appdata\\local\\programs\\python\\python38-32\\lib\\site-packages\\PIL\\BmpImagePlugin.py',
   'PYMODULE'),
  ('PIL._binary',
   'c:\\users\\conta\\appdata\\local\\programs\\python\\python38-32\\lib\\site-packages\\PIL\\_binary.py',
   'PYMODULE'),
  ('PIL.ImagePalette',
   'c:\\users\\conta\\appdata\\local\\programs\\python\\python38-32\\lib\\site-packages\\PIL\\ImagePalette.py',
   'PYMODULE'),
  ('PIL.PaletteFile',
   'c:\\users\\conta\\appdata\\local\\programs\\python\\python38-32\\lib\\site-packages\\PIL\\PaletteFile.py',
   'PYMODULE'),
  ('PIL.ImageColor',
   'c:\\users\\conta\\appdata\\local\\programs\\python\\python38-32\\lib\\site-packages\\PIL\\ImageColor.py',
   'PYMODULE'),
  ('colorsys',
   'c:\\users\\conta\\appdata\\local\\programs\\python\\python38-32\\lib\\colorsys.py',
   'PYMODULE'),
  ('PIL.GimpPaletteFile',
   'c:\\users\\conta\\appdata\\local\\programs\\python\\python38-32\\lib\\site-packages\\PIL\\GimpPaletteFile.py',
   'PYMODULE'),
  ('PIL.GimpGradientFile',
   'c:\\users\\conta\\appdata\\local\\programs\\python\\python38-32\\lib\\site-packages\\PIL\\GimpGradientFile.py',
   'PYMODULE'),
  ('PIL.ImageFile',
   'c:\\users\\conta\\appdata\\local\\programs\\python\\python38-32\\lib\\site-packages\\PIL\\ImageFile.py',
   'PYMODULE'),
  ('PIL._util',
   'c:\\users\\conta\\appdata\\local\\programs\\python\\python38-32\\lib\\site-packages\\PIL\\_util.py',
   'PYMODULE'),
  ('PIL.PngImagePlugin',
   'c:\\users\\conta\\appdata\\local\\programs\\python\\python38-32\\lib\\site-packages\\PIL\\PngImagePlugin.py',
   'PYMODULE'),
  ('PIL.ImageSequence',
   'c:\\users\\conta\\appdata\\local\\programs\\python\\python38-32\\lib\\site-packages\\PIL\\ImageSequence.py',
   'PYMODULE'),
  ('PIL.ImageChops',
   'c:\\users\\conta\\appdata\\local\\programs\\python\\python38-32\\lib\\site-packages\\PIL\\ImageChops.py',
   'PYMODULE'),
  ('imageio.plugins.pillow',
   'c:\\users\\conta\\appdata\\local\\programs\\python\\python38-32\\lib\\site-packages\\imageio\\plugins\\pillow.py',
   'PYMODULE'),
  ('imageio.plugins.pillowmulti',
   'c:\\users\\conta\\appdata\\local\\programs\\python\\python38-32\\lib\\site-packages\\imageio\\plugins\\pillowmulti.py',
   'PYMODULE'),
  ('PIL.GifImagePlugin',
   'c:\\users\\conta\\appdata\\local\\programs\\python\\python38-32\\lib\\site-packages\\PIL\\GifImagePlugin.py',
   'PYMODULE'),
  ('PIL.ExifTags',
   'c:\\users\\conta\\appdata\\local\\programs\\python\\python38-32\\lib\\site-packages\\PIL\\ExifTags.py',
   'PYMODULE'),
  ('imageio.plugins.pillow_info',
   'c:\\users\\conta\\appdata\\local\\programs\\python\\python38-32\\lib\\site-packages\\imageio\\plugins\\pillow_info.py',
   'PYMODULE'),
  ('imageio.plugins.tifffile',
   'c:\\users\\conta\\appdata\\local\\programs\\python\\python38-32\\lib\\site-packages\\imageio\\plugins\\tifffile.py',
   'PYMODULE'),
  ('imageio.plugins._tifffile',
   'c:\\users\\conta\\appdata\\local\\programs\\python\\python38-32\\lib\\site-packages\\imageio\\plugins\\_tifffile.py',
   'PYMODULE'),
  ('tkinter.filedialog',
   'c:\\users\\conta\\appdata\\local\\programs\\python\\python38-32\\lib\\tkinter\\filedialog.py',
   'PYMODULE'),
  ('tkinter.commondialog',
   'c:\\users\\conta\\appdata\\local\\programs\\python\\python38-32\\lib\\tkinter\\commondialog.py',
   'PYMODULE'),
  ('tkinter.dialog',
   'c:\\users\\conta\\appdata\\local\\programs\\python\\python38-32\\lib\\tkinter\\dialog.py',
   'PYMODULE'),
  ('tkinter',
   'c:\\users\\conta\\appdata\\local\\programs\\python\\python38-32\\lib\\tkinter\\__init__.py',
   'PYMODULE'),
  ('tkinter.constants',
   'c:\\users\\conta\\appdata\\local\\programs\\python\\python38-32\\lib\\tkinter\\constants.py',
   'PYMODULE'),
  ('xml.etree.cElementTree',
   'c:\\users\\conta\\appdata\\local\\programs\\python\\python38-32\\lib\\xml\\etree\\cElementTree.py',
   'PYMODULE'),
  ('xml.etree.ElementTree',
   'c:\\users\\conta\\appdata\\local\\programs\\python\\python38-32\\lib\\xml\\etree\\ElementTree.py',
   'PYMODULE'),
  ('xml.etree.ElementInclude',
   'c:\\users\\conta\\appdata\\local\\programs\\python\\python38-32\\lib\\xml\\etree\\ElementInclude.py',
   'PYMODULE'),
  ('xml.etree.ElementPath',
   'c:\\users\\conta\\appdata\\local\\programs\\python\\python38-32\\lib\\xml\\etree\\ElementPath.py',
   'PYMODULE'),
  ('xml.etree',
   'c:\\users\\conta\\appdata\\local\\programs\\python\\python38-32\\lib\\xml\\etree\\__init__.py',
   'PYMODULE'),
  ('fractions',
   'c:\\users\\conta\\appdata\\local\\programs\\python\\python38-32\\lib\\fractions.py',
   'PYMODULE'),
  ('imageio.core.functions',
   'c:\\users\\conta\\appdata\\local\\programs\\python\\python38-32\\lib\\site-packages\\imageio\\core\\functions.py',
   'PYMODULE'),
  ('imageio.core.format',
   'c:\\users\\conta\\appdata\\local\\programs\\python\\python38-32\\lib\\site-packages\\imageio\\core\\format.py',
   'PYMODULE'),
  ('imageio.core',
   'c:\\users\\conta\\appdata\\local\\programs\\python\\python38-32\\lib\\site-packages\\imageio\\core\\__init__.py',
   'PYMODULE'),
  ('imageio.core.request',
   'c:\\users\\conta\\appdata\\local\\programs\\python\\python38-32\\lib\\site-packages\\imageio\\core\\request.py',
   'PYMODULE'),
  ('imageio.core.fetching',
   'c:\\users\\conta\\appdata\\local\\programs\\python\\python38-32\\lib\\site-packages\\imageio\\core\\fetching.py',
   'PYMODULE'),
  ('imageio.core.findlib',
   'c:\\users\\conta\\appdata\\local\\programs\\python\\python38-32\\lib\\site-packages\\imageio\\core\\findlib.py',
   'PYMODULE'),
  ('imageio.core.util',
   'c:\\users\\conta\\appdata\\local\\programs\\python\\python38-32\\lib\\site-packages\\imageio\\core\\util.py',
   'PYMODULE'),
  ('numpy',
   'c:\\users\\conta\\appdata\\local\\programs\\python\\python38-32\\lib\\site-packages\\numpy\\__init__.py',
   'PYMODULE'),
  ('numpy._pytesttester',
   'c:\\users\\conta\\appdata\\local\\programs\\python\\python38-32\\lib\\site-packages\\numpy\\_pytesttester.py',
   'PYMODULE'),
  ('numpy.distutils.cpuinfo',
   'c:\\users\\conta\\appdata\\local\\programs\\python\\python38-32\\lib\\site-packages\\numpy\\distutils\\cpuinfo.py',
   'PYMODULE'),
  ('numpy.distutils',
   'c:\\users\\conta\\appdata\\local\\programs\\python\\python38-32\\lib\\site-packages\\numpy\\distutils\\__init__.py',
   'PYMODULE'),
  ('numpy.distutils.fcompiler',
   'c:\\users\\conta\\appdata\\local\\programs\\python\\python38-32\\lib\\site-packages\\numpy\\distutils\\fcompiler\\__init__.py',
   'PYMODULE'),
  ('numpy.distutils.command.config_compiler',
   'c:\\users\\conta\\appdata\\local\\programs\\python\\python38-32\\lib\\site-packages\\numpy\\distutils\\command\\config_compiler.py',
   'PYMODULE'),
  ('numpy.distutils.command',
   'c:\\users\\conta\\appdata\\local\\programs\\python\\python38-32\\lib\\site-packages\\numpy\\distutils\\command\\__init__.py',
   'PYMODULE'),
  ('numpy.distutils.command.egg_info',
   'c:\\users\\conta\\appdata\\local\\programs\\python\\python38-32\\lib\\site-packages\\numpy\\distutils\\command\\egg_info.py',
   'PYMODULE'),
  ('setuptools.command.egg_info',
   'c:\\users\\conta\\appdata\\local\\programs\\python\\python38-32\\lib\\site-packages\\setuptools\\command\\egg_info.py',
   'PYMODULE'),
  ('setuptools.glob',
   'c:\\users\\conta\\appdata\\local\\programs\\python\\python38-32\\lib\\site-packages\\setuptools\\glob.py',
   'PYMODULE'),
  ('setuptools.unicode_utils',
   'c:\\users\\conta\\appdata\\local\\programs\\python\\python38-32\\lib\\site-packages\\setuptools\\unicode_utils.py',
   'PYMODULE'),
  ('setuptools.command.bdist_egg',
   'c:\\users\\conta\\appdata\\local\\programs\\python\\python38-32\\lib\\site-packages\\setuptools\\command\\bdist_egg.py',
   'PYMODULE'),
  ('setuptools.extension',
   'c:\\users\\conta\\appdata\\local\\programs\\python\\python38-32\\lib\\site-packages\\setuptools\\extension.py',
   'PYMODULE'),
  ('setuptools.monkey',
   'c:\\users\\conta\\appdata\\local\\programs\\python\\python38-32\\lib\\site-packages\\setuptools\\monkey.py',
   'PYMODULE'),
  ('distutils.extension',
   'c:\\users\\conta\\appdata\\local\\programs\\python\\python38-32\\lib\\distutils\\extension.py',
   'PYMODULE'),
  ('setuptools.command',
   'c:\\users\\conta\\appdata\\local\\programs\\python\\python38-32\\lib\\site-packages\\setuptools\\command\\__init__.py',
   'PYMODULE'),
  ('setuptools.command.install_scripts',
   'c:\\users\\conta\\appdata\\local\\programs\\python\\python38-32\\lib\\site-packages\\setuptools\\command\\install_scripts.py',
   'PYMODULE'),
  ('setuptools.command.easy_install',
   'c:\\users\\conta\\appdata\\local\\programs\\python\\python38-32\\lib\\site-packages\\setuptools\\command\\easy_install.py',
   'PYMODULE'),
  ('setuptools.dist',
   'c:\\users\\conta\\appdata\\local\\programs\\python\\python38-32\\lib\\site-packages\\setuptools\\dist.py',
   'PYMODULE'),
  ('setuptools.installer',
   'c:\\users\\conta\\appdata\\local\\programs\\python\\python38-32\\lib\\site-packages\\setuptools\\installer.py',
   'PYMODULE'),
  ('setuptools.py31compat',
   'c:\\users\\conta\\appdata\\local\\programs\\python\\python38-32\\lib\\site-packages\\setuptools\\py31compat.py',
   'PYMODULE'),
  ('setuptools.config',
   'c:\\users\\conta\\appdata\\local\\programs\\python\\python38-32\\lib\\site-packages\\setuptools\\config.py',
   'PYMODULE'),
  ('setuptools.windows_support',
   'c:\\users\\conta\\appdata\\local\\programs\\python\\python38-32\\lib\\site-packages\\setuptools\\windows_support.py',
   'PYMODULE'),
  ('distutils.version',
   'c:\\users\\conta\\appdata\\local\\programs\\python\\python38-32\\lib\\distutils\\version.py',
   'PYMODULE'),
  ('distutils.cmd',
   'c:\\users\\conta\\appdata\\local\\programs\\python\\python38-32\\lib\\distutils\\cmd.py',
   'PYMODULE'),
  ('setuptools.wheel',
   'c:\\users\\conta\\appdata\\local\\programs\\python\\python38-32\\lib\\site-packages\\setuptools\\wheel.py',
   'PYMODULE'),
  ('setuptools.package_index',
   'c:\\users\\conta\\appdata\\local\\programs\\python\\python38-32\\lib\\site-packages\\setuptools\\package_index.py',
   'PYMODULE'),
  ('setuptools.ssl_support',
   'c:\\users\\conta\\appdata\\local\\programs\\python\\python38-32\\lib\\site-packages\\setuptools\\ssl_support.py',
   'PYMODULE'),
  ('setuptools.archive_util',
   'c:\\users\\conta\\appdata\\local\\programs\\python\\python38-32\\lib\\site-packages\\setuptools\\archive_util.py',
   'PYMODULE'),
  ('setuptools.sandbox',
   'c:\\users\\conta\\appdata\\local\\programs\\python\\python38-32\\lib\\site-packages\\setuptools\\sandbox.py',
   'PYMODULE'),
  ('site',
   'c:\\users\\conta\\appdata\\local\\programs\\python\\python38-32\\lib\\site-packages\\PyInstaller\\fake-modules\\site.py',
   'PYMODULE'),
  ('distutils.command.build_scripts',
   'c:\\users\\conta\\appdata\\local\\programs\\python\\python38-32\\lib\\distutils\\command\\build_scripts.py',
   'PYMODULE'),
  ('distutils.command',
   'c:\\users\\conta\\appdata\\local\\programs\\python\\python38-32\\lib\\distutils\\command\\__init__.py',
   'PYMODULE'),
  ('distutils.command.install',
   'c:\\users\\conta\\appdata\\local\\programs\\python\\python38-32\\lib\\distutils\\command\\install.py',
   'PYMODULE'),
  ('distutils.command.install_scripts',
   'c:\\users\\conta\\appdata\\local\\programs\\python\\python38-32\\lib\\distutils\\command\\install_scripts.py',
   'PYMODULE'),
  ('distutils.command.bdist',
   'c:\\users\\conta\\appdata\\local\\programs\\python\\python38-32\\lib\\distutils\\command\\bdist.py',
   'PYMODULE'),
  ('setuptools.command.setopt',
   'c:\\users\\conta\\appdata\\local\\programs\\python\\python38-32\\lib\\site-packages\\setuptools\\command\\setopt.py',
   'PYMODULE'),
  ('setuptools.command.sdist',
   'c:\\users\\conta\\appdata\\local\\programs\\python\\python38-32\\lib\\site-packages\\setuptools\\command\\sdist.py',
   'PYMODULE'),
  ('setuptools.command.py36compat',
   'c:\\users\\conta\\appdata\\local\\programs\\python\\python38-32\\lib\\site-packages\\setuptools\\command\\py36compat.py',
   'PYMODULE'),
  ('distutils.command.sdist',
   'c:\\users\\conta\\appdata\\local\\programs\\python\\python38-32\\lib\\distutils\\command\\sdist.py',
   'PYMODULE'),
  ('setuptools',
   'c:\\users\\conta\\appdata\\local\\programs\\python\\python38-32\\lib\\site-packages\\setuptools\\__init__.py',
   'PYMODULE'),
  ('setuptools._vendor.packaging.version',
   'c:\\users\\conta\\appdata\\local\\programs\\python\\python38-32\\lib\\site-packages\\setuptools\\_vendor\\packaging\\version.py',
   'PYMODULE'),
  ('setuptools._vendor.packaging._compat',
   'c:\\users\\conta\\appdata\\local\\programs\\python\\python38-32\\lib\\site-packages\\setuptools\\_vendor\\packaging\\_compat.py',
   'PYMODULE'),
  ('setuptools._vendor.packaging._structures',
   'c:\\users\\conta\\appdata\\local\\programs\\python\\python38-32\\lib\\site-packages\\setuptools\\_vendor\\packaging\\_structures.py',
   'PYMODULE'),
  ('setuptools._vendor.ordered_set',
   'c:\\users\\conta\\appdata\\local\\programs\\python\\python38-32\\lib\\site-packages\\setuptools\\_vendor\\ordered_set.py',
   'PYMODULE'),
  ('setuptools._vendor.packaging.__about__',
   'c:\\users\\conta\\appdata\\local\\programs\\python\\python38-32\\lib\\site-packages\\setuptools\\_vendor\\packaging\\__about__.py',
   'PYMODULE'),
  ('setuptools._vendor.packaging',
   'c:\\users\\conta\\appdata\\local\\programs\\python\\python38-32\\lib\\site-packages\\setuptools\\_vendor\\packaging\\__init__.py',
   'PYMODULE'),
  ('setuptools._vendor.packaging.utils',
   'c:\\users\\conta\\appdata\\local\\programs\\python\\python38-32\\lib\\site-packages\\setuptools\\_vendor\\packaging\\utils.py',
   'PYMODULE'),
  ('setuptools._vendor.packaging.tags',
   'c:\\users\\conta\\appdata\\local\\programs\\python\\python38-32\\lib\\site-packages\\setuptools\\_vendor\\packaging\\tags.py',
   'PYMODULE'),
  ('setuptools._vendor.packaging.requirements',
   'c:\\users\\conta\\appdata\\local\\programs\\python\\python38-32\\lib\\site-packages\\setuptools\\_vendor\\packaging\\requirements.py',
   'PYMODULE'),
  ('setuptools._vendor.packaging.specifiers',
   'c:\\users\\conta\\appdata\\local\\programs\\python\\python38-32\\lib\\site-packages\\setuptools\\_vendor\\packaging\\specifiers.py',
   'PYMODULE'),
  ('setuptools._vendor',
   'c:\\users\\conta\\appdata\\local\\programs\\python\\python38-32\\lib\\site-packages\\setuptools\\_vendor\\__init__.py',
   'PYMODULE'),
  ('setuptools._vendor.pyparsing',
   'c:\\users\\conta\\appdata\\local\\programs\\python\\python38-32\\lib\\site-packages\\setuptools\\_vendor\\pyparsing.py',
   'PYMODULE'),
  ('setuptools._vendor.six',
   'c:\\users\\conta\\appdata\\local\\programs\\python\\python38-32\\lib\\site-packages\\setuptools\\_vendor\\six.py',
   'PYMODULE'),
  ('setuptools._vendor.packaging.markers',
   'c:\\users\\conta\\appdata\\local\\programs\\python\\python38-32\\lib\\site-packages\\setuptools\\_vendor\\packaging\\markers.py',
   'PYMODULE'),
  ('setuptools.msvc',
   'c:\\users\\conta\\appdata\\local\\programs\\python\\python38-32\\lib\\site-packages\\setuptools\\msvc.py',
   'PYMODULE'),
  ('distutils.msvc9compiler',
   'c:\\users\\conta\\appdata\\local\\programs\\python\\python38-32\\lib\\distutils\\msvc9compiler.py',
   'PYMODULE'),
  ('distutils.command.build_ext',
   'c:\\users\\conta\\appdata\\local\\programs\\python\\python38-32\\lib\\distutils\\command\\build_ext.py',
   'PYMODULE'),
  ('distutils._msvccompiler',
   'c:\\users\\conta\\appdata\\local\\programs\\python\\python38-32\\lib\\distutils\\_msvccompiler.py',
   'PYMODULE'),
  ('setuptools.namespaces',
   'c:\\users\\conta\\appdata\\local\\programs\\python\\python38-32\\lib\\site-packages\\setuptools\\namespaces.py',
   'PYMODULE'),
  ('setuptools.depends',
   'c:\\users\\conta\\appdata\\local\\programs\\python\\python38-32\\lib\\site-packages\\setuptools\\depends.py',
   'PYMODULE'),
  ('setuptools.version',
   'c:\\users\\conta\\appdata\\local\\programs\\python\\python38-32\\lib\\site-packages\\setuptools\\version.py',
   'PYMODULE'),
  ('setuptools._deprecation_warning',
   'c:\\users\\conta\\appdata\\local\\programs\\python\\python38-32\\lib\\site-packages\\setuptools\\_deprecation_warning.py',
   'PYMODULE'),
  ('html.parser',
   'c:\\users\\conta\\appdata\\local\\programs\\python\\python38-32\\lib\\html\\parser.py',
   'PYMODULE'),
  ('_markupbase',
   'c:\\users\\conta\\appdata\\local\\programs\\python\\python38-32\\lib\\_markupbase.py',
   'PYMODULE'),
  ('setuptools.extern',
   'c:\\users\\conta\\appdata\\local\\programs\\python\\python38-32\\lib\\site-packages\\setuptools\\extern\\__init__.py',
   'PYMODULE'),
  ('numpy.distutils.command.develop',
   'c:\\users\\conta\\appdata\\local\\programs\\python\\python38-32\\lib\\site-packages\\numpy\\distutils\\command\\develop.py',
   'PYMODULE'),
  ('setuptools.command.develop',
   'c:\\users\\conta\\appdata\\local\\programs\\python\\python38-32\\lib\\site-packages\\setuptools\\command\\develop.py',
   'PYMODULE'),
  ('numpy.distutils.command.install_clib',
   'c:\\users\\conta\\appdata\\local\\programs\\python\\python38-32\\lib\\site-packages\\numpy\\distutils\\command\\install_clib.py',
   'PYMODULE'),
  ('numpy.distutils.command.bdist_rpm',
   'c:\\users\\conta\\appdata\\local\\programs\\python\\python38-32\\lib\\site-packages\\numpy\\distutils\\command\\bdist_rpm.py',
   'PYMODULE'),
  ('distutils.command.bdist_rpm',
   'c:\\users\\conta\\appdata\\local\\programs\\python\\python38-32\\lib\\distutils\\command\\bdist_rpm.py',
   'PYMODULE'),
  ('setuptools.command.bdist_rpm',
   'c:\\users\\conta\\appdata\\local\\programs\\python\\python38-32\\lib\\site-packages\\setuptools\\command\\bdist_rpm.py',
   'PYMODULE'),
  ('numpy.distutils.command.install',
   'c:\\users\\conta\\appdata\\local\\programs\\python\\python38-32\\lib\\site-packages\\numpy\\distutils\\command\\install.py',
   'PYMODULE'),
  ('setuptools.command.install',
   'c:\\users\\conta\\appdata\\local\\programs\\python\\python38-32\\lib\\site-packages\\setuptools\\command\\install.py',
   'PYMODULE'),
  ('numpy.distutils.command.install_headers',
   'c:\\users\\conta\\appdata\\local\\programs\\python\\python38-32\\lib\\site-packages\\numpy\\distutils\\command\\install_headers.py',
   'PYMODULE'),
  ('distutils.command.install_headers',
   'c:\\users\\conta\\appdata\\local\\programs\\python\\python38-32\\lib\\distutils\\command\\install_headers.py',
   'PYMODULE'),
  ('numpy.distutils.command.install_data',
   'c:\\users\\conta\\appdata\\local\\programs\\python\\python38-32\\lib\\site-packages\\numpy\\distutils\\command\\install_data.py',
   'PYMODULE'),
  ('distutils.command.install_data',
   'c:\\users\\conta\\appdata\\local\\programs\\python\\python38-32\\lib\\distutils\\command\\install_data.py',
   'PYMODULE'),
  ('numpy.distutils.command.sdist',
   'c:\\users\\conta\\appdata\\local\\programs\\python\\python38-32\\lib\\site-packages\\numpy\\distutils\\command\\sdist.py',
   'PYMODULE'),
  ('numpy.distutils.command.build_scripts',
   'c:\\users\\conta\\appdata\\local\\programs\\python\\python38-32\\lib\\site-packages\\numpy\\distutils\\command\\build_scripts.py',
   'PYMODULE'),
  ('numpy.distutils.command.build_clib',
   'c:\\users\\conta\\appdata\\local\\programs\\python\\python38-32\\lib\\site-packages\\numpy\\distutils\\command\\build_clib.py',
   'PYMODULE'),
  ('distutils.command.build_clib',
   'c:\\users\\conta\\appdata\\local\\programs\\python\\python38-32\\lib\\distutils\\command\\build_clib.py',
   'PYMODULE'),
  ('numpy.distutils.command.build_ext',
   'c:\\users\\conta\\appdata\\local\\programs\\python\\python38-32\\lib\\site-packages\\numpy\\distutils\\command\\build_ext.py',
   'PYMODULE'),
  ('numpy.distutils.system_info',
   'c:\\users\\conta\\appdata\\local\\programs\\python\\python38-32\\lib\\site-packages\\numpy\\distutils\\system_info.py',
   'PYMODULE'),
  ('numpy.f2py',
   'c:\\users\\conta\\appdata\\local\\programs\\python\\python38-32\\lib\\site-packages\\numpy\\f2py\\__init__.py',
   'PYMODULE'),
  ('numpy.f2py.diagnose',
   'c:\\users\\conta\\appdata\\local\\programs\\python\\python38-32\\lib\\site-packages\\numpy\\f2py\\diagnose.py',
   'PYMODULE'),
  ('numpy.f2py.f2py_testing',
   'c:\\users\\conta\\appdata\\local\\programs\\python\\python38-32\\lib\\site-packages\\numpy\\f2py\\f2py_testing.py',
   'PYMODULE'),
  ('numpy.f2py.f2py2e',
   'c:\\users\\conta\\appdata\\local\\programs\\python\\python38-32\\lib\\site-packages\\numpy\\f2py\\f2py2e.py',
   'PYMODULE'),
  ('numpy.distutils.command.build_src',
   'c:\\users\\conta\\appdata\\local\\programs\\python\\python38-32\\lib\\site-packages\\numpy\\distutils\\command\\build_src.py',
   'PYMODULE'),
  ('numpy.distutils.conv_template',
   'c:\\users\\conta\\appdata\\local\\programs\\python\\python38-32\\lib\\site-packages\\numpy\\distutils\\conv_template.py',
   'PYMODULE'),
  ('numpy.distutils.from_template',
   'c:\\users\\conta\\appdata\\local\\programs\\python\\python38-32\\lib\\site-packages\\numpy\\distutils\\from_template.py',
   'PYMODULE'),
  ('numpy.f2py.auxfuncs',
   'c:\\users\\conta\\appdata\\local\\programs\\python\\python38-32\\lib\\site-packages\\numpy\\f2py\\auxfuncs.py',
   'PYMODULE'),
  ('numpy.f2py.f90mod_rules',
   'c:\\users\\conta\\appdata\\local\\programs\\python\\python38-32\\lib\\site-packages\\numpy\\f2py\\f90mod_rules.py',
   'PYMODULE'),
  ('numpy.f2py.rules',
   'c:\\users\\conta\\appdata\\local\\programs\\python\\python38-32\\lib\\site-packages\\numpy\\f2py\\rules.py',
   'PYMODULE'),
  ('numpy.f2py.use_rules',
   'c:\\users\\conta\\appdata\\local\\programs\\python\\python38-32\\lib\\site-packages\\numpy\\f2py\\use_rules.py',
   'PYMODULE'),
  ('numpy.f2py.common_rules',
   'c:\\users\\conta\\appdata\\local\\programs\\python\\python38-32\\lib\\site-packages\\numpy\\f2py\\common_rules.py',
   'PYMODULE'),
  ('numpy.f2py.func2subr',
   'c:\\users\\conta\\appdata\\local\\programs\\python\\python38-32\\lib\\site-packages\\numpy\\f2py\\func2subr.py',
   'PYMODULE'),
  ('numpy.f2py.crackfortran',
   'c:\\users\\conta\\appdata\\local\\programs\\python\\python38-32\\lib\\site-packages\\numpy\\f2py\\crackfortran.py',
   'PYMODULE'),
  ('fileinput',
   'c:\\users\\conta\\appdata\\local\\programs\\python\\python38-32\\lib\\fileinput.py',
   'PYMODULE'),
  ('numpy.f2py.cb_rules',
   'c:\\users\\conta\\appdata\\local\\programs\\python\\python38-32\\lib\\site-packages\\numpy\\f2py\\cb_rules.py',
   'PYMODULE'),
  ('numpy.f2py.capi_maps',
   'c:\\users\\conta\\appdata\\local\\programs\\python\\python38-32\\lib\\site-packages\\numpy\\f2py\\capi_maps.py',
   'PYMODULE'),
  ('numpy.f2py.cfuncs',
   'c:\\users\\conta\\appdata\\local\\programs\\python\\python38-32\\lib\\site-packages\\numpy\\f2py\\cfuncs.py',
   'PYMODULE'),
  ('numpy.f2py.__version__',
   'c:\\users\\conta\\appdata\\local\\programs\\python\\python38-32\\lib\\site-packages\\numpy\\f2py\\__version__.py',
   'PYMODULE'),
  ('numpy.distutils.command.build_py',
   'c:\\users\\conta\\appdata\\local\\programs\\python\\python38-32\\lib\\site-packages\\numpy\\distutils\\command\\build_py.py',
   'PYMODULE'),
  ('distutils.command.build_py',
   'c:\\users\\conta\\appdata\\local\\programs\\python\\python38-32\\lib\\distutils\\command\\build_py.py',
   'PYMODULE'),
  ('numpy.distutils.command.build',
   'c:\\users\\conta\\appdata\\local\\programs\\python\\python38-32\\lib\\site-packages\\numpy\\distutils\\command\\build.py',
   'PYMODULE'),
  ('distutils.command.build',
   'c:\\users\\conta\\appdata\\local\\programs\\python\\python38-32\\lib\\distutils\\command\\build.py',
   'PYMODULE'),
  ('numpy.distutils.command.config',
   'c:\\users\\conta\\appdata\\local\\programs\\python\\python38-32\\lib\\site-packages\\numpy\\distutils\\command\\config.py',
   'PYMODULE'),
  ('numpy.distutils.command.autodist',
   'c:\\users\\conta\\appdata\\local\\programs\\python\\python38-32\\lib\\site-packages\\numpy\\distutils\\command\\autodist.py',
   'PYMODULE'),
  ('numpy.distutils.mingw32ccompiler',
   'c:\\users\\conta\\appdata\\local\\programs\\python\\python38-32\\lib\\site-packages\\numpy\\distutils\\mingw32ccompiler.py',
   'PYMODULE'),
  ('distutils.msvccompiler',
   'c:\\users\\conta\\appdata\\local\\programs\\python\\python38-32\\lib\\distutils\\msvccompiler.py',
   'PYMODULE'),
  ('distutils.unixccompiler',
   'c:\\users\\conta\\appdata\\local\\programs\\python\\python38-32\\lib\\distutils\\unixccompiler.py',
   'PYMODULE'),
  ('distutils.cygwinccompiler',
   'c:\\users\\conta\\appdata\\local\\programs\\python\\python38-32\\lib\\distutils\\cygwinccompiler.py',
   'PYMODULE'),
  ('distutils.command.config',
   'c:\\users\\conta\\appdata\\local\\programs\\python\\python38-32\\lib\\distutils\\command\\config.py',
   'PYMODULE'),
  ('distutils.core',
   'c:\\users\\conta\\appdata\\local\\programs\\python\\python38-32\\lib\\distutils\\core.py',
   'PYMODULE'),
  ('distutils.config',
   'c:\\users\\conta\\appdata\\local\\programs\\python\\python38-32\\lib\\distutils\\config.py',
   'PYMODULE'),
  ('cgi',
   'c:\\users\\conta\\appdata\\local\\programs\\python\\python38-32\\lib\\cgi.py',
   'PYMODULE'),
  ('distutils.dist',
   'c:\\users\\conta\\appdata\\local\\programs\\python\\python38-32\\lib\\distutils\\dist.py',
   'PYMODULE'),
  ('distutils.versionpredicate',
   'c:\\users\\conta\\appdata\\local\\programs\\python\\python38-32\\lib\\distutils\\versionpredicate.py',
   'PYMODULE'),
  ('numpy.distutils.core',
   'c:\\users\\conta\\appdata\\local\\programs\\python\\python38-32\\lib\\site-packages\\numpy\\distutils\\core.py',
   'PYMODULE'),
  ('numpy.distutils.numpy_distribution',
   'c:\\users\\conta\\appdata\\local\\programs\\python\\python38-32\\lib\\site-packages\\numpy\\distutils\\numpy_distribution.py',
   'PYMODULE'),
  ('numpy.distutils.extension',
   'c:\\users\\conta\\appdata\\local\\programs\\python\\python38-32\\lib\\site-packages\\numpy\\distutils\\extension.py',
   'PYMODULE'),
  ('numpy.distutils.fcompiler.environment',
   'c:\\users\\conta\\appdata\\local\\programs\\python\\python38-32\\lib\\site-packages\\numpy\\distutils\\fcompiler\\environment.py',
   'PYMODULE'),
  ('numpy.distutils.exec_command',
   'c:\\users\\conta\\appdata\\local\\programs\\python\\python38-32\\lib\\site-packages\\numpy\\distutils\\exec_command.py',
   'PYMODULE'),
  ('numpy.distutils.misc_util',
   'c:\\users\\conta\\appdata\\local\\programs\\python\\python38-32\\lib\\site-packages\\numpy\\distutils\\misc_util.py',
   'PYMODULE'),
  ('curses',
   'c:\\users\\conta\\appdata\\local\\programs\\python\\python38-32\\lib\\curses\\__init__.py',
   'PYMODULE'),
  ('curses.has_key',
   'c:\\users\\conta\\appdata\\local\\programs\\python\\python38-32\\lib\\curses\\has_key.py',
   'PYMODULE'),
  ('dummy_threading',
   'c:\\users\\conta\\appdata\\local\\programs\\python\\python38-32\\lib\\dummy_threading.py',
   'PYMODULE'),
  ('_dummy_thread',
   'c:\\users\\conta\\appdata\\local\\programs\\python\\python38-32\\lib\\_dummy_thread.py',
   'PYMODULE'),
  ('numpy.distutils.__config__',
   'c:\\users\\conta\\appdata\\local\\programs\\python\\python38-32\\lib\\site-packages\\numpy\\distutils\\__config__.py',
   'PYMODULE'),
  ('numpy.distutils.npy_pkg_config',
   'c:\\users\\conta\\appdata\\local\\programs\\python\\python38-32\\lib\\site-packages\\numpy\\distutils\\npy_pkg_config.py',
   'PYMODULE'),
  ('numpy.distutils.unixccompiler',
   'c:\\users\\conta\\appdata\\local\\programs\\python\\python38-32\\lib\\site-packages\\numpy\\distutils\\unixccompiler.py',
   'PYMODULE'),
  ('numpy.distutils.ccompiler',
   'c:\\users\\conta\\appdata\\local\\programs\\python\\python38-32\\lib\\site-packages\\numpy\\distutils\\ccompiler.py',
   'PYMODULE'),
  ('numpy.distutils._shell_utils',
   'c:\\users\\conta\\appdata\\local\\programs\\python\\python38-32\\lib\\site-packages\\numpy\\distutils\\_shell_utils.py',
   'PYMODULE'),
  ('pipes',
   'c:\\users\\conta\\appdata\\local\\programs\\python\\python38-32\\lib\\pipes.py',
   'PYMODULE'),
  ('numpy.distutils.lib2def',
   'c:\\users\\conta\\appdata\\local\\programs\\python\\python38-32\\lib\\site-packages\\numpy\\distutils\\lib2def.py',
   'PYMODULE'),
  ('numpy.distutils.log',
   'c:\\users\\conta\\appdata\\local\\programs\\python\\python38-32\\lib\\site-packages\\numpy\\distutils\\log.py',
   'PYMODULE'),
  ('numpy.testing',
   'c:\\users\\conta\\appdata\\local\\programs\\python\\python38-32\\lib\\site-packages\\numpy\\testing\\__init__.py',
   'PYMODULE'),
  ('numpy.testing._private.nosetester',
   'c:\\users\\conta\\appdata\\local\\programs\\python\\python38-32\\lib\\site-packages\\numpy\\testing\\_private\\nosetester.py',
   'PYMODULE'),
  ('numpy.testing._private.noseclasses',
   'c:\\users\\conta\\appdata\\local\\programs\\python\\python38-32\\lib\\site-packages\\numpy\\testing\\_private\\noseclasses.py',
   'PYMODULE'),
  ('numpy.testing._private.decorators',
   'c:\\users\\conta\\appdata\\local\\programs\\python\\python38-32\\lib\\site-packages\\numpy\\testing\\_private\\decorators.py',
   'PYMODULE'),
  ('numpy.testing._private.parameterized',
   'c:\\users\\conta\\appdata\\local\\programs\\python\\python38-32\\lib\\site-packages\\numpy\\testing\\_private\\parameterized.py',
   'PYMODULE'),
  ('numpy.testing._private',
   'c:\\users\\conta\\appdata\\local\\programs\\python\\python38-32\\lib\\site-packages\\numpy\\testing\\_private\\__init__.py',
   'PYMODULE'),
  ('numpy.testing._private.utils',
   'c:\\users\\conta\\appdata\\local\\programs\\python\\python38-32\\lib\\site-packages\\numpy\\testing\\_private\\utils.py',
   'PYMODULE'),
  ('numpy.core.fromnumeric',
   'c:\\users\\conta\\appdata\\local\\programs\\python\\python38-32\\lib\\site-packages\\numpy\\core\\fromnumeric.py',
   'PYMODULE'),
  ('numpy.core._methods',
   'c:\\users\\conta\\appdata\\local\\programs\\python\\python38-32\\lib\\site-packages\\numpy\\core\\_methods.py',
   'PYMODULE'),
  ('numpy.core._exceptions',
   'c:\\users\\conta\\appdata\\local\\programs\\python\\python38-32\\lib\\site-packages\\numpy\\core\\_exceptions.py',
   'PYMODULE'),
  ('numpy.core._asarray',
   'c:\\users\\conta\\appdata\\local\\programs\\python\\python38-32\\lib\\site-packages\\numpy\\core\\_asarray.py',
   'PYMODULE'),
  ('numpy.core.umath',
   'c:\\users\\conta\\appdata\\local\\programs\\python\\python38-32\\lib\\site-packages\\numpy\\core\\umath.py',
   'PYMODULE'),
  ('numpy.core.overrides',
   'c:\\users\\conta\\appdata\\local\\programs\\python\\python38-32\\lib\\site-packages\\numpy\\core\\overrides.py',
   'PYMODULE'),
  ('numpy.compat._inspect',
   'c:\\users\\conta\\appdata\\local\\programs\\python\\python38-32\\lib\\site-packages\\numpy\\compat\\_inspect.py',
   'PYMODULE'),
  ('numpy.core.multiarray',
   'c:\\users\\conta\\appdata\\local\\programs\\python\\python38-32\\lib\\site-packages\\numpy\\core\\multiarray.py',
   'PYMODULE'),
  ('numpy.core.numerictypes',
   'c:\\users\\conta\\appdata\\local\\programs\\python\\python38-32\\lib\\site-packages\\numpy\\core\\numerictypes.py',
   'PYMODULE'),
  ('numpy.core._dtype',
   'c:\\users\\conta\\appdata\\local\\programs\\python\\python38-32\\lib\\site-packages\\numpy\\core\\_dtype.py',
   'PYMODULE'),
  ('numpy.core._type_aliases',
   'c:\\users\\conta\\appdata\\local\\programs\\python\\python38-32\\lib\\site-packages\\numpy\\core\\_type_aliases.py',
   'PYMODULE'),
  ('numpy.core._string_helpers',
   'c:\\users\\conta\\appdata\\local\\programs\\python\\python38-32\\lib\\site-packages\\numpy\\core\\_string_helpers.py',
   'PYMODULE'),
  ('numpy.matrixlib',
   'c:\\users\\conta\\appdata\\local\\programs\\python\\python38-32\\lib\\site-packages\\numpy\\matrixlib\\__init__.py',
   'PYMODULE'),
  ('numpy.matrixlib.defmatrix',
   'c:\\users\\conta\\appdata\\local\\programs\\python\\python38-32\\lib\\site-packages\\numpy\\matrixlib\\defmatrix.py',
   'PYMODULE'),
  ('numpy.dual',
   'c:\\users\\conta\\appdata\\local\\programs\\python\\python38-32\\lib\\site-packages\\numpy\\dual.py',
   'PYMODULE'),
  ('numpy.core.numeric',
   'c:\\users\\conta\\appdata\\local\\programs\\python\\python38-32\\lib\\site-packages\\numpy\\core\\numeric.py',
   'PYMODULE'),
  ('numpy.core.arrayprint',
   'c:\\users\\conta\\appdata\\local\\programs\\python\\python38-32\\lib\\site-packages\\numpy\\core\\arrayprint.py',
   'PYMODULE'),
  ('numpy.core._ufunc_config',
   'c:\\users\\conta\\appdata\\local\\programs\\python\\python38-32\\lib\\site-packages\\numpy\\core\\_ufunc_config.py',
   'PYMODULE'),
  ('numpy.core.shape_base',
   'c:\\users\\conta\\appdata\\local\\programs\\python\\python38-32\\lib\\site-packages\\numpy\\core\\shape_base.py',
   'PYMODULE'),
  ('numpy.ma',
   'c:\\users\\conta\\appdata\\local\\programs\\python\\python38-32\\lib\\site-packages\\numpy\\ma\\__init__.py',
   'PYMODULE'),
  ('numpy.ma.extras',
   'c:\\users\\conta\\appdata\\local\\programs\\python\\python38-32\\lib\\site-packages\\numpy\\ma\\extras.py',
   'PYMODULE'),
  ('numpy.lib.index_tricks',
   'c:\\users\\conta\\appdata\\local\\programs\\python\\python38-32\\lib\\site-packages\\numpy\\lib\\index_tricks.py',
   'PYMODULE'),
  ('numpy.lib.stride_tricks',
   'c:\\users\\conta\\appdata\\local\\programs\\python\\python38-32\\lib\\site-packages\\numpy\\lib\\stride_tricks.py',
   'PYMODULE'),
  ('numpy.lib.function_base',
   'c:\\users\\conta\\appdata\\local\\programs\\python\\python38-32\\lib\\site-packages\\numpy\\lib\\function_base.py',
   'PYMODULE'),
  ('numpy.lib.histograms',
   'c:\\users\\conta\\appdata\\local\\programs\\python\\python38-32\\lib\\site-packages\\numpy\\lib\\histograms.py',
   'PYMODULE'),
  ('numpy.lib.twodim_base',
   'c:\\users\\conta\\appdata\\local\\programs\\python\\python38-32\\lib\\site-packages\\numpy\\lib\\twodim_base.py',
   'PYMODULE'),
  ('numpy.core.function_base',
   'c:\\users\\conta\\appdata\\local\\programs\\python\\python38-32\\lib\\site-packages\\numpy\\core\\function_base.py',
   'PYMODULE'),
  ('numpy.ma.core',
   'c:\\users\\conta\\appdata\\local\\programs\\python\\python38-32\\lib\\site-packages\\numpy\\ma\\core.py',
   'PYMODULE'),
  ('numpy.core._internal',
   'c:\\users\\conta\\appdata\\local\\programs\\python\\python38-32\\lib\\site-packages\\numpy\\core\\_internal.py',
   'PYMODULE'),
  ('numpy.ctypeslib',
   'c:\\users\\conta\\appdata\\local\\programs\\python\\python38-32\\lib\\site-packages\\numpy\\ctypeslib.py',
   'PYMODULE'),
  ('numpy.random',
   'c:\\users\\conta\\appdata\\local\\programs\\python\\python38-32\\lib\\site-packages\\numpy\\random\\__init__.py',
   'PYMODULE'),
  ('numpy.random._pickle',
   'c:\\users\\conta\\appdata\\local\\programs\\python\\python38-32\\lib\\site-packages\\numpy\\random\\_pickle.py',
   'PYMODULE'),
  ('numpy.polynomial',
   'c:\\users\\conta\\appdata\\local\\programs\\python\\python38-32\\lib\\site-packages\\numpy\\polynomial\\__init__.py',
   'PYMODULE'),
  ('numpy.polynomial.laguerre',
   'c:\\users\\conta\\appdata\\local\\programs\\python\\python38-32\\lib\\site-packages\\numpy\\polynomial\\laguerre.py',
   'PYMODULE'),
  ('numpy.polynomial._polybase',
   'c:\\users\\conta\\appdata\\local\\programs\\python\\python38-32\\lib\\site-packages\\numpy\\polynomial\\_polybase.py',
   'PYMODULE'),
  ('numpy.polynomial.hermite_e',
   'c:\\users\\conta\\appdata\\local\\programs\\python\\python38-32\\lib\\site-packages\\numpy\\polynomial\\hermite_e.py',
   'PYMODULE'),
  ('numpy.polynomial.hermite',
   'c:\\users\\conta\\appdata\\local\\programs\\python\\python38-32\\lib\\site-packages\\numpy\\polynomial\\hermite.py',
   'PYMODULE'),
  ('numpy.polynomial.legendre',
   'c:\\users\\conta\\appdata\\local\\programs\\python\\python38-32\\lib\\site-packages\\numpy\\polynomial\\legendre.py',
   'PYMODULE'),
  ('numpy.polynomial.chebyshev',
   'c:\\users\\conta\\appdata\\local\\programs\\python\\python38-32\\lib\\site-packages\\numpy\\polynomial\\chebyshev.py',
   'PYMODULE'),
  ('numpy.polynomial.polynomial',
   'c:\\users\\conta\\appdata\\local\\programs\\python\\python38-32\\lib\\site-packages\\numpy\\polynomial\\polynomial.py',
   'PYMODULE'),
  ('numpy.polynomial.polyutils',
   'c:\\users\\conta\\appdata\\local\\programs\\python\\python38-32\\lib\\site-packages\\numpy\\polynomial\\polyutils.py',
   'PYMODULE'),
  ('numpy.fft',
   'c:\\users\\conta\\appdata\\local\\programs\\python\\python38-32\\lib\\site-packages\\numpy\\fft\\__init__.py',
   'PYMODULE'),
  ('numpy.fft.helper',
   'c:\\users\\conta\\appdata\\local\\programs\\python\\python38-32\\lib\\site-packages\\numpy\\fft\\helper.py',
   'PYMODULE'),
  ('numpy.fft._pocketfft',
   'c:\\users\\conta\\appdata\\local\\programs\\python\\python38-32\\lib\\site-packages\\numpy\\fft\\_pocketfft.py',
   'PYMODULE'),
  ('numpy.linalg',
   'c:\\users\\conta\\appdata\\local\\programs\\python\\python38-32\\lib\\site-packages\\numpy\\linalg\\__init__.py',
   'PYMODULE'),
  ('numpy.linalg.linalg',
   'c:\\users\\conta\\appdata\\local\\programs\\python\\python38-32\\lib\\site-packages\\numpy\\linalg\\linalg.py',
   'PYMODULE'),
  ('numpy.lib',
   'c:\\users\\conta\\appdata\\local\\programs\\python\\python38-32\\lib\\site-packages\\numpy\\lib\\__init__.py',
   'PYMODULE'),
  ('numpy.lib._version',
   'c:\\users\\conta\\appdata\\local\\programs\\python\\python38-32\\lib\\site-packages\\numpy\\lib\\_version.py',
   'PYMODULE'),
  ('numpy.lib.arraypad',
   'c:\\users\\conta\\appdata\\local\\programs\\python\\python38-32\\lib\\site-packages\\numpy\\lib\\arraypad.py',
   'PYMODULE'),
  ('numpy.lib.arrayterator',
   'c:\\users\\conta\\appdata\\local\\programs\\python\\python38-32\\lib\\site-packages\\numpy\\lib\\arrayterator.py',
   'PYMODULE'),
  ('numpy.lib.financial',
   'c:\\users\\conta\\appdata\\local\\programs\\python\\python38-32\\lib\\site-packages\\numpy\\lib\\financial.py',
   'PYMODULE'),
  ('numpy.lib.npyio',
   'c:\\users\\conta\\appdata\\local\\programs\\python\\python38-32\\lib\\site-packages\\numpy\\lib\\npyio.py',
   'PYMODULE'),
  ('numpy.ma.mrecords',
   'c:\\users\\conta\\appdata\\local\\programs\\python\\python38-32\\lib\\site-packages\\numpy\\ma\\mrecords.py',
   'PYMODULE'),
  ('numpy.core.records',
   'c:\\users\\conta\\appdata\\local\\programs\\python\\python38-32\\lib\\site-packages\\numpy\\core\\records.py',
   'PYMODULE'),
  ('numpy.lib._iotools',
   'c:\\users\\conta\\appdata\\local\\programs\\python\\python38-32\\lib\\site-packages\\numpy\\lib\\_iotools.py',
   'PYMODULE'),
  ('numpy.lib._datasource',
   'c:\\users\\conta\\appdata\\local\\programs\\python\\python38-32\\lib\\site-packages\\numpy\\lib\\_datasource.py',
   'PYMODULE'),
  ('numpy.lib.format',
   'c:\\users\\conta\\appdata\\local\\programs\\python\\python38-32\\lib\\site-packages\\numpy\\lib\\format.py',
   'PYMODULE'),
  ('numpy.lib.arraysetops',
   'c:\\users\\conta\\appdata\\local\\programs\\python\\python38-32\\lib\\site-packages\\numpy\\lib\\arraysetops.py',
   'PYMODULE'),
  ('numpy.lib.utils',
   'c:\\users\\conta\\appdata\\local\\programs\\python\\python38-32\\lib\\site-packages\\numpy\\lib\\utils.py',
   'PYMODULE'),
  ('numpy.lib.polynomial',
   'c:\\users\\conta\\appdata\\local\\programs\\python\\python38-32\\lib\\site-packages\\numpy\\lib\\polynomial.py',
   'PYMODULE'),
  ('numpy.lib.ufunclike',
   'c:\\users\\conta\\appdata\\local\\programs\\python\\python38-32\\lib\\site-packages\\numpy\\lib\\ufunclike.py',
   'PYMODULE'),
  ('numpy.lib.shape_base',
   'c:\\users\\conta\\appdata\\local\\programs\\python\\python38-32\\lib\\site-packages\\numpy\\lib\\shape_base.py',
   'PYMODULE'),
  ('numpy.lib.nanfunctions',
   'c:\\users\\conta\\appdata\\local\\programs\\python\\python38-32\\lib\\site-packages\\numpy\\lib\\nanfunctions.py',
   'PYMODULE'),
  ('numpy.lib.type_check',
   'c:\\users\\conta\\appdata\\local\\programs\\python\\python38-32\\lib\\site-packages\\numpy\\lib\\type_check.py',
   'PYMODULE'),
  ('numpy.core.getlimits',
   'c:\\users\\conta\\appdata\\local\\programs\\python\\python38-32\\lib\\site-packages\\numpy\\core\\getlimits.py',
   'PYMODULE'),
  ('numpy.core.machar',
   'c:\\users\\conta\\appdata\\local\\programs\\python\\python38-32\\lib\\site-packages\\numpy\\core\\machar.py',
   'PYMODULE'),
  ('numpy.lib.scimath',
   'c:\\users\\conta\\appdata\\local\\programs\\python\\python38-32\\lib\\site-packages\\numpy\\lib\\scimath.py',
   'PYMODULE'),
  ('numpy.lib.mixins',
   'c:\\users\\conta\\appdata\\local\\programs\\python\\python38-32\\lib\\site-packages\\numpy\\lib\\mixins.py',
   'PYMODULE'),
  ('numpy.compat',
   'c:\\users\\conta\\appdata\\local\\programs\\python\\python38-32\\lib\\site-packages\\numpy\\compat\\__init__.py',
   'PYMODULE'),
  ('numpy.compat.py3k',
   'c:\\users\\conta\\appdata\\local\\programs\\python\\python38-32\\lib\\site-packages\\numpy\\compat\\py3k.py',
   'PYMODULE'),
  ('numpy.core',
   'c:\\users\\conta\\appdata\\local\\programs\\python\\python38-32\\lib\\site-packages\\numpy\\core\\__init__.py',
   'PYMODULE'),
  ('numpy.core._dtype_ctypes',
   'c:\\users\\conta\\appdata\\local\\programs\\python\\python38-32\\lib\\site-packages\\numpy\\core\\_dtype_ctypes.py',
   'PYMODULE'),
  ('numpy.core._add_newdocs',
   'c:\\users\\conta\\appdata\\local\\programs\\python\\python38-32\\lib\\site-packages\\numpy\\core\\_add_newdocs.py',
   'PYMODULE'),
  ('numpy.core.einsumfunc',
   'c:\\users\\conta\\appdata\\local\\programs\\python\\python38-32\\lib\\site-packages\\numpy\\core\\einsumfunc.py',
   'PYMODULE'),
  ('numpy.core.memmap',
   'c:\\users\\conta\\appdata\\local\\programs\\python\\python38-32\\lib\\site-packages\\numpy\\core\\memmap.py',
   'PYMODULE'),
  ('numpy.core.defchararray',
   'c:\\users\\conta\\appdata\\local\\programs\\python\\python38-32\\lib\\site-packages\\numpy\\core\\defchararray.py',
   'PYMODULE'),
  ('numpy._distributor_init',
   'c:\\users\\conta\\appdata\\local\\programs\\python\\python38-32\\lib\\site-packages\\numpy\\_distributor_init.py',
   'PYMODULE'),
  ('numpy.version',
   'c:\\users\\conta\\appdata\\local\\programs\\python\\python38-32\\lib\\site-packages\\numpy\\version.py',
   'PYMODULE'),
  ('numpy.__config__',
   'c:\\users\\conta\\appdata\\local\\programs\\python\\python38-32\\lib\\site-packages\\numpy\\__config__.py',
   'PYMODULE'),
  ('numpy._globals',
   'c:\\users\\conta\\appdata\\local\\programs\\python\\python38-32\\lib\\site-packages\\numpy\\_globals.py',
   'PYMODULE'),
  ('PIL.Image',
   'c:\\users\\conta\\appdata\\local\\programs\\python\\python38-32\\lib\\site-packages\\PIL\\Image.py',
   'PYMODULE'),
  ('PIL.BufrStubImagePlugin',
   'c:\\users\\conta\\appdata\\local\\programs\\python\\python38-32\\lib\\site-packages\\PIL\\BufrStubImagePlugin.py',
   'PYMODULE'),
  ('PIL.PdfImagePlugin',
   'c:\\users\\conta\\appdata\\local\\programs\\python\\python38-32\\lib\\site-packages\\PIL\\PdfImagePlugin.py',
   'PYMODULE'),
  ('PIL.PdfParser',
   'c:\\users\\conta\\appdata\\local\\programs\\python\\python38-32\\lib\\site-packages\\PIL\\PdfParser.py',
   'PYMODULE'),
  ('PIL.PsdImagePlugin',
   'c:\\users\\conta\\appdata\\local\\programs\\python\\python38-32\\lib\\site-packages\\PIL\\PsdImagePlugin.py',
   'PYMODULE'),
  ('PIL.MpoImagePlugin',
   'c:\\users\\conta\\appdata\\local\\programs\\python\\python38-32\\lib\\site-packages\\PIL\\MpoImagePlugin.py',
   'PYMODULE'),
  ('PIL.MicImagePlugin',
   'c:\\users\\conta\\appdata\\local\\programs\\python\\python38-32\\lib\\site-packages\\PIL\\MicImagePlugin.py',
   'PYMODULE'),
  ('PIL.FliImagePlugin',
   'c:\\users\\conta\\appdata\\local\\programs\\python\\python38-32\\lib\\site-packages\\PIL\\FliImagePlugin.py',
   'PYMODULE'),
  ('PIL.McIdasImagePlugin',
   'c:\\users\\conta\\appdata\\local\\programs\\python\\python38-32\\lib\\site-packages\\PIL\\McIdasImagePlugin.py',
   'PYMODULE'),
  ('PIL.XVThumbImagePlugin',
   'c:\\users\\conta\\appdata\\local\\programs\\python\\python38-32\\lib\\site-packages\\PIL\\XVThumbImagePlugin.py',
   'PYMODULE'),
  ('PIL.FtexImagePlugin',
   'c:\\users\\conta\\appdata\\local\\programs\\python\\python38-32\\lib\\site-packages\\PIL\\FtexImagePlugin.py',
   'PYMODULE'),
  ('PIL.TgaImagePlugin',
   'c:\\users\\conta\\appdata\\local\\programs\\python\\python38-32\\lib\\site-packages\\PIL\\TgaImagePlugin.py',
   'PYMODULE'),
  ('PIL.PcdImagePlugin',
   'c:\\users\\conta\\appdata\\local\\programs\\python\\python38-32\\lib\\site-packages\\PIL\\PcdImagePlugin.py',
   'PYMODULE'),
  ('PIL.PcxImagePlugin',
   'c:\\users\\conta\\appdata\\local\\programs\\python\\python38-32\\lib\\site-packages\\PIL\\PcxImagePlugin.py',
   'PYMODULE'),
  ('PIL.IptcImagePlugin',
   'c:\\users\\conta\\appdata\\local\\programs\\python\\python38-32\\lib\\site-packages\\PIL\\IptcImagePlugin.py',
   'PYMODULE'),
  ('PIL.IcoImagePlugin',
   'c:\\users\\conta\\appdata\\local\\programs\\python\\python38-32\\lib\\site-packages\\PIL\\IcoImagePlugin.py',
   'PYMODULE'),
  ('PIL.ImImagePlugin',
   'c:\\users\\conta\\appdata\\local\\programs\\python\\python38-32\\lib\\site-packages\\PIL\\ImImagePlugin.py',
   'PYMODULE'),
  ('PIL.DcxImagePlugin',
   'c:\\users\\conta\\appdata\\local\\programs\\python\\python38-32\\lib\\site-packages\\PIL\\DcxImagePlugin.py',
   'PYMODULE'),
  ('PIL.GbrImagePlugin',
   'c:\\users\\conta\\appdata\\local\\programs\\python\\python38-32\\lib\\site-packages\\PIL\\GbrImagePlugin.py',
   'PYMODULE'),
  ('PIL.SunImagePlugin',
   'c:\\users\\conta\\appdata\\local\\programs\\python\\python38-32\\lib\\site-packages\\PIL\\SunImagePlugin.py',
   'PYMODULE'),
  ('PIL.ImtImagePlugin',
   'c:\\users\\conta\\appdata\\local\\programs\\python\\python38-32\\lib\\site-packages\\PIL\\ImtImagePlugin.py',
   'PYMODULE'),
  ('PIL.PixarImagePlugin',
   'c:\\users\\conta\\appdata\\local\\programs\\python\\python38-32\\lib\\site-packages\\PIL\\PixarImagePlugin.py',
   'PYMODULE'),
  ('PIL.WebPImagePlugin',
   'c:\\users\\conta\\appdata\\local\\programs\\python\\python38-32\\lib\\site-packages\\PIL\\WebPImagePlugin.py',
   'PYMODULE'),
  ('PIL.MspImagePlugin',
   'c:\\users\\conta\\appdata\\local\\programs\\python\\python38-32\\lib\\site-packages\\PIL\\MspImagePlugin.py',
   'PYMODULE'),
  ('PIL.FpxImagePlugin',
   'c:\\users\\conta\\appdata\\local\\programs\\python\\python38-32\\lib\\site-packages\\PIL\\FpxImagePlugin.py',
   'PYMODULE'),
  ('PIL.EpsImagePlugin',
   'c:\\users\\conta\\appdata\\local\\programs\\python\\python38-32\\lib\\site-packages\\PIL\\EpsImagePlugin.py',
   'PYMODULE'),
  ('PIL.CurImagePlugin',
   'c:\\users\\conta\\appdata\\local\\programs\\python\\python38-32\\lib\\site-packages\\PIL\\CurImagePlugin.py',
   'PYMODULE'),
  ('PIL.PalmImagePlugin',
   'c:\\users\\conta\\appdata\\local\\programs\\python\\python38-32\\lib\\site-packages\\PIL\\PalmImagePlugin.py',
   'PYMODULE'),
  ('PIL.BlpImagePlugin',
   'c:\\users\\conta\\appdata\\local\\programs\\python\\python38-32\\lib\\site-packages\\PIL\\BlpImagePlugin.py',
   'PYMODULE'),
  ('PIL.SgiImagePlugin',
   'c:\\users\\conta\\appdata\\local\\programs\\python\\python38-32\\lib\\site-packages\\PIL\\SgiImagePlugin.py',
   'PYMODULE'),
  ('PIL.FitsStubImagePlugin',
   'c:\\users\\conta\\appdata\\local\\programs\\python\\python38-32\\lib\\site-packages\\PIL\\FitsStubImagePlugin.py',
   'PYMODULE'),
  ('PIL.GribStubImagePlugin',
   'c:\\users\\conta\\appdata\\local\\programs\\python\\python38-32\\lib\\site-packages\\PIL\\GribStubImagePlugin.py',
   'PYMODULE'),
  ('PIL.MpegImagePlugin',
   'c:\\users\\conta\\appdata\\local\\programs\\python\\python38-32\\lib\\site-packages\\PIL\\MpegImagePlugin.py',
   'PYMODULE'),
  ('PIL.IcnsImagePlugin',
   'c:\\users\\conta\\appdata\\local\\programs\\python\\python38-32\\lib\\site-packages\\PIL\\IcnsImagePlugin.py',
   'PYMODULE'),
  ('PIL.features',
   'c:\\users\\conta\\appdata\\local\\programs\\python\\python38-32\\lib\\site-packages\\PIL\\features.py',
   'PYMODULE'),
  ('PIL.Jpeg2KImagePlugin',
   'c:\\users\\conta\\appdata\\local\\programs\\python\\python38-32\\lib\\site-packages\\PIL\\Jpeg2KImagePlugin.py',
   'PYMODULE'),
  ('PIL.WmfImagePlugin',
   'c:\\users\\conta\\appdata\\local\\programs\\python\\python38-32\\lib\\site-packages\\PIL\\WmfImagePlugin.py',
   'PYMODULE'),
  ('PIL.DdsImagePlugin',
   'c:\\users\\conta\\appdata\\local\\programs\\python\\python38-32\\lib\\site-packages\\PIL\\DdsImagePlugin.py',
   'PYMODULE'),
  ('PIL.XpmImagePlugin',
   'c:\\users\\conta\\appdata\\local\\programs\\python\\python38-32\\lib\\site-packages\\PIL\\XpmImagePlugin.py',
   'PYMODULE'),
  ('PIL.XbmImagePlugin',
   'c:\\users\\conta\\appdata\\local\\programs\\python\\python38-32\\lib\\site-packages\\PIL\\XbmImagePlugin.py',
   'PYMODULE'),
  ('PIL.Hdf5StubImagePlugin',
   'c:\\users\\conta\\appdata\\local\\programs\\python\\python38-32\\lib\\site-packages\\PIL\\Hdf5StubImagePlugin.py',
   'PYMODULE'),
  ('PIL.SpiderImagePlugin',
   'c:\\users\\conta\\appdata\\local\\programs\\python\\python38-32\\lib\\site-packages\\PIL\\SpiderImagePlugin.py',
   'PYMODULE'),
  ('PIL.ImageTk',
   'c:\\users\\conta\\appdata\\local\\programs\\python\\python38-32\\lib\\site-packages\\PIL\\ImageTk.py',
   'PYMODULE'),
  ('PIL.TiffImagePlugin',
   'c:\\users\\conta\\appdata\\local\\programs\\python\\python38-32\\lib\\site-packages\\PIL\\TiffImagePlugin.py',
   'PYMODULE'),
  ('PIL.ImageShow',
   'c:\\users\\conta\\appdata\\local\\programs\\python\\python38-32\\lib\\site-packages\\PIL\\ImageShow.py',
   'PYMODULE'),
  ('PIL.ImageQt',
   'c:\\users\\conta\\appdata\\local\\programs\\python\\python38-32\\lib\\site-packages\\PIL\\ImageQt.py',
   'PYMODULE'),
  ('PIL.ImageFilter',
   'c:\\users\\conta\\appdata\\local\\programs\\python\\python38-32\\lib\\site-packages\\PIL\\ImageFilter.py',
   'PYMODULE'),
  ('PIL.PyAccess',
   'c:\\users\\conta\\appdata\\local\\programs\\python\\python38-32\\lib\\site-packages\\PIL\\PyAccess.py',
   'PYMODULE'),
  ('PIL.PpmImagePlugin',
   'c:\\users\\conta\\appdata\\local\\programs\\python\\python38-32\\lib\\site-packages\\PIL\\PpmImagePlugin.py',
   'PYMODULE'),
  ('PIL.JpegImagePlugin',
   'c:\\users\\conta\\appdata\\local\\programs\\python\\python38-32\\lib\\site-packages\\PIL\\JpegImagePlugin.py',
   'PYMODULE'),
  ('PIL.JpegPresets',
   'c:\\users\\conta\\appdata\\local\\programs\\python\\python38-32\\lib\\site-packages\\PIL\\JpegPresets.py',
   'PYMODULE'),
  ('PIL.TiffTags',
   'c:\\users\\conta\\appdata\\local\\programs\\python\\python38-32\\lib\\site-packages\\PIL\\TiffTags.py',
   'PYMODULE'),
  ('PIL.ImageMode',
   'c:\\users\\conta\\appdata\\local\\programs\\python\\python38-32\\lib\\site-packages\\PIL\\ImageMode.py',
   'PYMODULE'),
  ('PIL',
   'c:\\users\\conta\\appdata\\local\\programs\\python\\python38-32\\lib\\site-packages\\PIL\\__init__.py',
   'PYMODULE'),
  ('PIL._version',
   'c:\\users\\conta\\appdata\\local\\programs\\python\\python38-32\\lib\\site-packages\\PIL\\_version.py',
   'PYMODULE'),
  ('ast',
   'c:\\users\\conta\\appdata\\local\\programs\\python\\python38-32\\lib\\ast.py',
   'PYMODULE'),
  ('PyQt5',
   'c:\\users\\conta\\appdata\\local\\programs\\python\\python38-32\\lib\\site-packages\\PyQt5\\__init__.py',
   'PYMODULE')])
